90 120 60
---
11 8 4 4 2 11 1 18 14 3 17 6 1 10 10 15 13 6 9 5 5 2 9 5 15 19 11 18 13 10 1 19 1 12 1 19 1 17 18 17 1 11 5 3 5 6 9 5 3 2 16 10 13 11 11 10 18 19 8 2 1 3 5 4 2 17 6 9 9 10 14 15 8 11 5 14 17 6 19 10 11 6 15 12 13 10 6 9 2 11 2 2 9 17 16 18 6 1 1 7 19 1 15 13 7 1 3 3 6 16 12 12 19 18 11 15 7 13 11 11
12 16 7 18 9 13 7 10 15 7 8 16 6 12 10 10 10 3 5 12 8 4 4 5 18 9 2 11 7 2 11 13 10 10 15 4 13 17 4 14 14 12 7 19 8 16 7 8 8 1 5 5 8 18 4 8 13 2 19 1 11 15 4 14 16 15 7 16 16 7 16 12 18 10 17 15 17 4 17 3 2 13 3 6 16 7 5 12 6 8 11 11 18 4 3 19 9 13 4 13 9 11 11 2 5 12 6 17 1 8 11 9 5 17 18 17 12 17 17 10
10 15 10 9 16 5 14 15 8 18 7 4 1 4 13 11 3 2 2 5 1 8 11 18 16 2 7 2 5 6 7 11 16 14 3 14 2 3 6 19 18 11 10 3 2 7 8 1 4 8 15 11 16 12 9 3 4 12 12 14 18 13 10 3 12 16 8 7 2 18 9 1 16 3 7 9 17 9 17 10 14 6 17 17 10 16 15 4 5 19 11 9 10 11 1 5 2 8 11 5 19 1 19 6 18 15 15 14 6 1 6 15 15 3 1 12 15 13 12 15
2 5 3 2 8 19 10 5 2 2 8 10 18 12 10 13 7 12 18 15 2 1 17 4 14 15 14 8 11 9 9 9 15 15 4 15 18 17 17 18 5 10 12 5 13 16 16 4 12 8 6 4 14 17 14 1 7 18 7 12 6 3 13 13 12 19 14 4 8 15 14 9 14 19 10 11 9 13 11 18 18 11 15 4 4 5 14 18 1 4 8 19 11 6 13 2 16 19 12 14 2 13 15 17 13 16 10 15 7 4 12 14 8 8 13 14 8 10 10 7
5 15 4 5 7 15 18 8 7 9 14 9 1 17 17 6 16 17 11 7 15 18 12 16 12 14 12 3 12 18 14 7 10 5 9 7 10 11 10 17 18 2 9 18 9 3 13 10 11 8 18 10 19 3 12 6 4 7 13 13 4 15 16 8 14 8 18 16 9 10 15 5 8 13 8 13 10 14 8 9 1 2 11 5 19 4 7 8 13 3 3 4 17 17 14 3 6 1 4 2 5 17 2 1 12 13 3 7 14 18 16 9 19 4 12 2 5 12 8 11
2 11 3 6 8 12 7 10 18 6 8 9 11 7 5 4 1 10 12 6 2 19 13 14 7 13 4 14 6 13 18 13 12 13 19 13 14 15 13 1 6 12 9 9 10 7 18 13 19 8 2 14 19 3 9 2 18 9 19 14 8 13 5 5 7 14 16 17 7 12 9 5 16 12 19 9 11 4 4 19 15 11 15 17 12 4 14 10 4 18 14 6 16 19 12 13 8 4 2 16 10 2 6 7 19 16 17 8 3 1 10 14 5 19 18 16 18 7 13 3
1 7 14 8 17 4 9 17 19 7 1 8 2 8 10 13 5 8 18 15 7 6 8 4 8 19 1 16 1 16 14 1 11 18 15 4 8 18 10 15 8 1 9 16 19 3 13 17 10 6 11 11 9 18 16 15 18 10 1 17 3 12 16 4 12 19 16 3 12 7 6 7 17 3 7 6 16 12 5 5 7 4 7 15 5 4 12 13 3 1 5 17 17 13 12 16 5 6 4 19 6 10 5 4 19 5 13 6 11 11 18 7 5 15 10 19 6 1 18 8
8 4 1 12 2 9 9 5 11 11 2 11 8 6 19 17 19 4 16 1 11 7 2 12 2 17 12 3 3 13 11 4 7 15 12 2 9 12 2 11 15 8 15 1 9 8 19 19 16 13 19 3 5 18 17 1 3 9 11 5 16 7 3 17 19 17 4 12 13 17 8 7 2 6 5 3 12 2 3 13 18 12 7 9 13 9 19 8 18 11 19 1 1 17 14 8 6 17 1 11 5 7 6 19 5 13 1 18 14 15 9 1 6 17 6 4 1 13 4 11
18 15 14 3 17 8 6 4 11 17 17 14 2 11 9 12 6 8 5 1 8 1 14 4 2 18 14 3 12 11 8 12 14 9 13 9 12 4 2 16 7 16 8 16 17 15 19 15 9 14 17 13 9 4 4 17 2 11 2 18 14 3 12 1 10 5 1 12 18 1 1 3 6 8 14 11 13 17 6 6 19 19 14 18 13 14 4 10 6 15 8 1 3 3 3 4 5 7 7 13 15 7 16 9 13 15 7 1 9 12 5 4 6 15 18 15 9 14 7 15
1 10 7 4 12 19 1 3 5 11 7 6 11 12 11 13 3 6 5 18 7 3 2 14 11 5 15 7 4 8 14 10 19 12 12 6 1 13 16 14 14 5 16 18 5 18 12 13 5 6 12 4 10 9 8 18 8 13 12 8 5 13 18 17 16 16 6 18 19 5 13 10 9 10 4 3 7 3 9 12 12 2 3 18 15 11 1 11 4 14 17 7 1 8 9 2 6 18 3 9 12 13 14 19 13 3 14 19 6 5 11 6 5 19 16 4 11 1 2 5
16 15 15 6 7 6 9 2 2 3 16 8 19 19 1 18 7 3 5 13 17 1 6 18 4 12 3 1 12 6 10 6 17 18 12 16 18 8 13 8 14 13 18 4 9 3 6 5 19 18 16 9 15 8 7 15 10 16 3 15 3 8 10 16 12 11 11 2 8 4 19 19 10 17 19 5 3 3 10 1 6 18 2 13 9 2 10 9 11 16 7 3 6 17 5 6 3 2 11 17 11 5 16 15 18 17 18 18 9 3 13 8 6 2 10 4 7 16 7 10
1 3 11 11 16 17 13 13 12 13 2 1 11 13 9 1 2 6 15 11 4 12 19 8 4 19 16 5 7 1 19 7 14 2 16 9 14 6 18 2 5 6 7 15 2 12 16 13 12 9 3 1 1 15 7 9 3 3 8 17 1 9 6 11 14 14 6 9 16 1 7 16 7 14 7 17 5 4 7 11 3 4 12 18 18 19 7 19 15 7 6 11 17 2 1 15 1 15 2 7 6 7 17 12 2 6 13 6 9 9 5 18 15 16 14 17 17 8 12 14
8 7 14 9 15 15 18 6 14 12 17 9 3 1 6 16 6 19 16 12 6 1 10 6 3 7 16 2 8 3 18 12 4 7 19 18 12 9 17 6 8 8 12 16 12 15 16 15 11 18 11 17 11 19 9 8 16 9 6 8 19 17 17 11 13 5 6 15 1 7 4 17 3 10 5 17 8 14 13 8 11 1 10 10 12 1 2 4 18 12 2 4 3 9 6 10 10 2 3 8 9 2 14 5 14 13 14 2 14 11 19 3 15 17 17 18 7 8 18 13
4 3 17 9 5 1 14 13 4 14 7 7 11 6 19 10 7 6 15 18 7 19 9 7 12 19 9 6 12 8 4 3 3 10 5 7 4 6 1 14 18 1 17 19 5 13 12 9 17 8 12 2 13 1 6 4 13 11 16 5 12 9 2 16 11 5 4 1 2 13 6 2 5 2 19 6 3 9 3 19 8 19 8 5 15 2 10 2 4 1 13 13 9 15 3 10 19 1 8 19 9 11 8 5 2 11 16 11 2 1 2 4 8 17 17 12 2 17 2 10
15 2 16 1 19 12 12 10 19 10 6 2 1 3 10 16 11 3 3 4 5 18 1 4 19 9 5 11 17 10 8 2 19 18 4 8 14 7 5 10 18 7 12 12 14 19 3 5 8 1 2 18 15 18 5 17 1 13 2 10 7 2 12 9 2 5 2 3 19 2 3 5 18 12 5 18 6 9 9 19 7 19 4 16 9 10 7 2 13 7 7 1 6 14 3 17 14 3 10 10 17 1 6 6 18 17 1 3 13 6 11 12 5 2 4 7 17 16 1 12
17 1 9 12 15 2 18 4 10 7 5 4 18 18 3 6 14 18 18 11 9 4 8 8 16 15 16 5 10 15 1 18 2 18 12 17 11 14 10 17 18 16 12 6 2 7 13 6 19 17 13 18 17 9 3 13 12 2 15 19 5 14 13 15 7 7 2 19 6 6 15 19 8 2 13 13 12 3 7 9 2 11 6 13 2 2 1 13 16 19 5 10 18 10 12 5 3 17 18 14 6 13 19 13 3 14 11 16 16 9 2 10 15 7 18 13 9 1 13 6
7 9 4 7 2 5 1 18 9 9 10 14 4 12 3 8 12 12 10 8 11 5 16 8 17 14 15 12 12 18 15 2 5 13 8 17 10 12 12 17 13 13 7 8 18 8 7 3 4 10 2 17 11 5 15 3 12 15 10 7 10 9 6 11 13 9 9 10 5 6 18 19 19 12 15 18 17 9 9 9 7 12 9 3 16 18 11 19 17 5 5 14 3 6 8 4 7 15 14 10 18 16 17 17 11 2 18 18 10 17 5 4 7 1 1 17 1 3 14 15
17 10 13 19 1 4 17 13 5 11 11 2 15 18 11 10 15 11 11 15 19 13 9 1 1 2 8 2 6 10 4 4 2 18 13 9 4 18 16 8 5 5 14 19 7 3 9 9 10 10 3 9 12 19 15 4 1 13 18 19 16 15 8 14 7 7 1 16 6 2 7 16 14 4 10 15 19 10 13 18 13 19 12 16 8 15 12 3 3 9 8 11 19 17 11 9 16 19 13 19 2 12 3 8 3 6 14 8 9 1 5 11 19 1 6 17 4 12 7 12
14 17 13 16 14 15 17 17 12 2 18 19 17 14 16 1 16 5 13 2 1 4 14 2 5 17 12 18 11 14 6 5 13 1 5 5 18 7 14 8 8 17 16 8 3 5 13 5 4 6 2 19 19 5 11 10 4 11 12 16 4 19 7 17 15 13 7 16 9 12 2 9 10 6 13 4 8 6 19 19 4 7 14 6 13 7 6 9 9 14 1 7 14 17 5 9 11 18 12 9 18 17 16 12 4 12 9 13 11 8 3 17 12 13 12 16 5 1 5 9
8 18 7 14 12 15 14 12 2 5 12 9 14 10 1 7 11 3 3 2 17 12 17 1 12 3 15 2 6 8 5 10 14 3 2 1 10 3 19 9 17 16 12 7 16 13 4 3 12 6 6 2 18 3 12 15 1 7 3 10 19 13 7 13 19 3 14 12 8 1 16 9 4 13 4 1 19 11 5 18 19 13 10 19 3 4 11 11 10 7 19 4 19 10 9 5 10 19 7 14 18 11 14 12 9 17 18 5 19 11 15 10 2 4 10 7 3 7 11 16
11 4 2 2 1 13 9 13 5 19 11 1 4 11 19 8 19 18 11 6 6 6 12 19 11 10 2 16 19 3 2 3 9 11 3 15 10 12 11 15 8 5 1 19 1 15 7 11 5 3 8 5 16 5 11 5 11 3 11 11 12 13 13 3 18 8 12 13 8 4 18 7 8 15 17 1 6 12 18 16 3 11 12 17 14 17 6 4 19 17 4 7 2 19 4 15 12 18 2 12 3 13 3 1 4 1 17 2 8 11 19 19 4 15 8 2 1 15 8 2
3 9 13 11 1 11 6 8 12 2 8 7 11 7 13 10 8 11 14 14 19 4 16 9 18 5 4 7 11 2 14 16 11 1 10 14 1 12 19 12 15 10 10 6 3 13 8 16 2 18 13 9 2 14 2 18 13 5 12 15 8 18 16 10 8 12 16 10 17 18 9 16 11 2 18 10 14 10 7 6 16 7 5 13 8 5 15 17 19 11 2 16 19 5 5 16 13 1 18 10 17 18 19 3 10 17 17 19 15 11 4 3 17 7 19 1 14 4 2 3
17 18 11 6 17 13 16 7 17 2 17 14 12 16 8 18 7 2 4 11 7 15 2 8 8 19 18 12 5 4 3 10 18 16 13 18 7 14 6 16 1 11 3 13 14 10 10 2 18 2 14 12 1 11 15 2 16 4 18 17 14 5 3 14 19 7 15 16 3 10 11 13 16 7 10 16 13 9 13 17 9 16 13 4 10 11 10 8 2 11 2 3 16 8 2 16 9 9 14 7 14 14 19 9 10 2 16 13 1 18 9 8 11 1 9 18 11 18 4 9
17 8 15 11 8 8 16 8 5 13 8 5 15 6 3 14 17 5 14 9 15 16 7 3 3 14 12 16 19 4 6 10 5 5 10 7 19 8 1 2 5 8 8 7 10 4 12 5 17 15 1 6 5 15 14 1 1 12 9 14 15 1 9 2 8 18 1 10 16 16 14 10 5 12 4 7 9 19 13 18 2 8 18 4 3 19 6 9 11 9 7 8 19 7 7 4 19 7 19 12 4 3 9 2 1 11 2 13 11 7 12 1 19 10 12 8 3 5 18 8
12 11 18 7 10 7 11 18 6 19 7 3 1 1 14 19 18 17 4 12 18 12 18 4 17 6 9 9 14 18 2 15 8 11 19 13 4 3 12 14 1 4 7 11 1 10 1 18 16 13 9 6 2 7 10 19 13 15 10 4 17 3 4 7 17 12 14 9 1 1 16 16 5 9 11 14 6 7 4 7 6 10 12 2 10 16 13 1 1 19 1 9 13 8 16 18 1 1 13 8 15 11 17 15 16 12 1 12 15 16 14 6 11 3 18 7 10 2 17 2
18 14 9 2 1 8 4 17 12 13 14 5 13 16 11 14 13 17 5 17 16 2 5 5 5 14 17 10 10 10 8 18 4 12 9 2 3 16 14 9 9 3 19 3 2 10 13 15 11 4 14 12 17 19 5 17 9 4 16 7 10 13 7 3 5 16 2 1 7 10 12 16 3 15 9 13 2 3 3 15 1 2 19 6 15 16 1 4 8 11 12 18 19 8 18 15 16 17 17 6 9 13 9 1 12 17 10 2 11 12 16 7 2 2 6 9 14 1 8 9
15 17 13 15 17 13 17 14 17 13 17 4 6 17 7 8 13 18 14 17 7 19 13 16 15 6 17 18 3 10 2 15 10 8 10 11 1 13 4 18 1 15 5 17 14 12 2 4 15 17 15 15 7 10 3 16 5 17 1 12 16 19 12 7 12 3 14 17 7 15 8 1 15 16 16 11 14 15 2 3 5 13 3 5 14 6 9 19 5 14 7 3 12 12 3 2 3 17 6 12 18 4 17 19 10 15 1 10 14 11 2 9 15 18 7 3 16 7 12 6
14 15 12 13 9 5 9 4 14 15 9 16 10 10 5 1 16 3 14 19 5 18 6 14 12 18 8 13 5 1 5 15 5 19 18 3 11 5 11 6 6 17 16 18 3 5 18 6 14 6 6 13 12 13 2 15 10 18 1 10 16 16 18 14 10 13 11 11 12 2 9 12 12 9 13 8 3 7 11 7 19 3 18 18 14 12 4 12 18 3 13 13 4 2 9 10 18 2 8 10 13 7 13 12 17 14 2 4 1 14 12 3 8 14 10 14 17 1 1 18
10 19 13 9 9 16 8 10 1 3 9 2 19 1 13 12 9 7 2 19 10 19 12 5 11 10 6 10 11 14 13 18 2 9 1 14 14 5 4 1 6 11 4 17 5 11 4 7 1 17 5 11 18 1 9 10 8 9 18 19 10 18 19 6 10 10 19 10 1 19 18 5 3 1 14 18 16 14 19 19 7 19 9 13 9 3 19 2 1 10 6 5 6 5 10 8 12 18 8 15 11 14 6 2 19 1 8 17 6 10 14 13 10 19 13 11 9 7 16 7
10 18 10 10 13 13 19 18 11 7 7 18 7 5 8 13 13 8 13 9 15 2 15 10 16 13 15 7 12 18 18 5 2 1 5 13 4 15 8 6 2 9 7 19 4 15 6 6 11 19 18 2 13 7 12 8 3 19 14 1 17 12 7 12 8 2 16 7 19 14 9 17 19 7 8 6 15 15 6 1 7 10 15 12 1 17 12 15 8 16 11 4 2 8 8 9 2 15 11 2 19 19 6 17 11 1 2 6 19 6 13 7 13 13 13 8 17 15 11 11
10 2 18 4 4 5 15 11 18 18 5 19 5 5 2 8 5 18 1 1 15 6 15 3 3 4 11 9 15 1 12 7 5 19 12 18 1 3 13 7 5 10 7 2 2 14 3 9 12 5 4 18 15 11 16 5 6 16 1 1 14 7 16 18 7 18 15 5 12 3 7 3 5 13 15 5 18 14 2 9 1 2 17 10 17 13 11 13 4 8 13 5 2 13 13 18 14 9 15 4 18 18 16 9 18 1 14 2 15 12 6 12 15 11 19 13 9 6 1 13
7 2 1 5 10 3 1 12 1 16 10 10 19 17 11 3 5 8 12 16 19 10 17 12 2 2 10 11 14 1 10 8 8 2 17 17 17 12 19 15 1 2 1 19 2 16 12 17 1 16 8 2 14 5 14 16 4 9 4 9 12 10 18 1 7 3 2 17 1 13 5 13 8 16 16 17 9 18 11 5 9 13 10 17 12 9 14 4 7 1 13 9 8 11 4 10 4 1 13 18 15 14 16 7 12 15 13 17 8 16 7 6 18 18 1 19 19 1 8 17
8 17 11 19 1 16 5 17 13 6 14 9 5 12 10 14 16 4 6 16 16 17 16 10 13 8 11 10 11 5 11 3 12 15 11 17 4 16 7 15 11 15 5 3 3 18 1 6 8 7 3 16 15 11 2 11 2 1 7 12 6 14 7 9 15 11 17 9 2 13 10 19 17 10 6 1 13 13 8 15 7 5 2 5 2 15 7 1 14 19 15 4 10 14 10 16 9 15 8 12 1 11 5 15 16 3 18 6 6 2 18 8 12 11 5 1 13 3 7 19
4 16 15 2 17 6 10 3 19 10 12 17 6 16 14 16 1 7 8 18 16 2 15 12 2 8 11 19 9 10 4 7 9 8 8 4 16 3 17 11 13 16 7 15 10 2 2 16 16 9 19 6 15 8 3 3 2 4 1 10 14 10 14 9 7 5 8 18 8 10 1 17 9 16 5 1 14 19 3 1 6 15 3 1 11 17 11 1 5 5 3 12 3 8 16 3 3 18 9 5 13 4 8 6 9 2 16 18 4 3 9 3 2 19 4 19 8 14 18 9
13 8 13 4 8 8 15 1 1 2 18 16 11 17 7 3 7 16 11 9 1 13 17 3 16 19 11 3 5 16 15 9 19 19 11 6 10 5 17 2 7 15 17 2 5 13 12 4 12 2 13 11 3 10 8 1 10 11 7 9 16 12 16 4 7 10 16 11 7 2 13 2 18 10 2 6 15 15 18 4 8 8 11 4 4 4 6 10 11 11 15 18 17 9 5 15 19 14 14 14 16 1 17 11 8 11 12 13 8 3 5 14 13 4 2 9 2 13 1 3
4 6 19 15 7 14 4 10 5 6 7 2 2 4 7 7 10 19 15 13 11 13 3 8 7 1 5 14 8 16 14 6 13 11 10 11 1 2 4 14 7 3 8 2 16 3 13 10 16 14 18 2 18 7 12 11 4 11 9 7 10 10 3 9 12 1 8 10 13 16 6 9 16 2 6 9 5 1 12 4 7 15 18 13 17 12 8 7 19 19 8 9 12 17 4 17 19 19 10 15 14 4 16 1 9 9 6 16 2 3 6 3 19 6 19 15 12 10 11 19
13 2 10 14 9 16 16 18 17 9 9 6 11 16 10 3 18 18 4 9 7 11 5 16 13 5 10 7 17 9 5 10 8 10 3 12 13 2 11 12 13 7 19 12 14 1 11 3 16 17 16 13 6 3 12 2 16 13 2 4 6 10 2 9 4 18 18 2 14 17 9 16 7 12 15 1 12 13 3 13 14 7 11 1 12 11 5 6 17 1 15 1 1 8 6 3 6 10 8 15 3 10 9 18 8 1 7 14 7 12 10 4 10 9 9 19 18 2 17 12
14 12 4 13 2 9 15 18 6 13 15 2 5 8 10 5 17 12 12 11 5 11 18 5 11 12 10 12 18 7 4 4 13 15 1 10 6 16 16 18 5 8 8 14 17 8 18 3 18 5 2 7 9 6 8 3 14 18 3 10 19 4 19 18 9 11 8 10 7 1 18 2 16 14 7 16 3 5 8 3 13 7 13 14 6 17 15 8 8 18 15 7 14 6 19 1 9 10 5 7 19 9 16 17 6 19 10 14 19 11 1 10 11 19 17 12 11 6 13 11
15 1 2 9 5 12 8 10 15 6 8 12 19 2 3 5 11 15 8 6 7 1 9 16 17 6 15 14 9 7 10 3 17 13 11 19 7 7 12 14 12 1 19 14 4 8 10 9 17 13 1 15 17 7 4 14 12 6 11 19 16 13 2 8 15 5 15 6 11 4 17 5 3 14 13 7 1 14 12 10 15 6 17 16 7 15 5 11 10 16 7 2 16 13 17 18 19 12 18 18 13 5 18 13 15 16 12 4 13 17 13 17 13 1 4 10 16 5 2 1
19 5 16 14 16 16 8 10 16 15 8 9 16 13 17 11 8 4 1 10 3 2 17 12 3 9 8 15 10 8 3 14 11 18 18 8 8 5 16 19 9 3 7 18 9 5 2 19 4 12 3 13 4 11 18 18 7 4 12 8 9 12 19 9 13 14 17 18 14 9 3 4 7 2 2 1 15 19 4 17 8 8 12 17 5 9 10 19 1 1 2 5 12 9 10 16 3 17 6 15 7 4 6 14 9 19 6 3 10 18 4 8 1 14 19 2 1 3 4 4
4 18 18 14 8 18 11 17 11 5 17 17 14 8 10 5 3 18 8 6 4 8 9 3 17 13 4 17 10 9 16 1 13 3 11 9 6 11 7 11 8 8 11 5 1 7 14 12 4 15 18 2 14 18 19 16 9 16 16 14 14 13 8 3 9 17 4 11 16 2 19 11 12 17 17 15 16 5 2 11 19 12 14 14 10 14 7 15 3 15 1 9 14 12 17 15 1 9 16 4 3 3 15 3 16 8 10 17 1 5 1 5 14 6 14 3 19 13 12 15
11 8 9 2 2 10 16 19 19 3 14 8 8 18 8 17 16 11 18 2 4 9 15 18 15 15 15 9 17 15 15 8 17 2 13 15 13 13 1 6 12 11 17 17 10 13 16 16 18 17 6 8 14 10 11 2 13 11 7 6 14 7 2 5 8 7 11 7 6 12 4 3 11 12 10 13 12 17 8 2 19 19 11 1 9 8 13 7 10 11 3 3 7 15 11 5 9 13 10 3 3 9 11 6 14 3 17 2 19 17 10 15 3 5 6 15 16 2 15 19
14 4 16 14 10 1 16 15 1 6 5 19 8 6 19 10 9 5 7 7 10 11 7 13 2 8 1 2 9 16 8 8 17 10 8 18 13 16 15 13 7 2 1 14 12 11 7 16 6 16 7 11 15 9 10 4 16 4 13 3 1 15 7 5 17 17 2 18 17 2 17 12 10 13 1 8 10 13 1 11 1 4 16 13 9 16 12 9 1 5 2 10 4 13 12 11 15 16 17 15 9 9 18 4 18 15 2 2 9 2 13 4 3 2 3 17 19 13 15 1
5 12 17 13 19 8 9 17 2 9 12 14 15 6 2 11 5 12 14 14 14 11 1 18 11 18 7 2 11 14 12 3 1 16 10 16 11 6 5 10 7 5 19 19 9 19 8 17 1 11 13 8 18 2 7 13 12 19 3 2 1 7 6 7 17 10 13 19 15 5 1 18 8 4 8 10 12 1 9 11 10 10 2 19 2 5 4 19 10 17 5 12 4 4 9 19 18 13 2 19 7 9 2 15 11 14 19 15 13 17 2 11 10 11 11 11 6 6 6 13
7 14 10 18 1 9 15 5 14 8 11 18 19 10 5 2 9 6 9 7 5 9 6 13 15 13 2 13 12 18 14 12 7 8 12 12 18 4 15 2 19 15 1 5 6 3 12 1 6 10 3 19 16 18 9 18 9 17 3 7 7 3 12 16 14 18 12 11 17 13 3 6 10 7 7 9 8 1 7 12 2 1 7 2 16 15 15 8 19 14 4 1 1 8 15 17 3 4 11 8 11 1 3 13 7 17 9 10 12 1 10 8 11 11 6 7 15 11 1 19
3 4 12 4 9 2 5 2 12 10 6 4 9 18 2 1 17 14 14 18 6 6 16 19 5 15 10 10 3 8 3 12 4 12 6 7 9 19 4 6 12 8 17 2 14 6 18 13 9 5 9 1 16 2 14 16 7 13 18 14 12 15 19 4 8 13 1 17 12 14 12 18 11 9 7 18 9 14 5 18 16 17 1 17 19 3 16 3 18 10 1 16 1 9 14 16 8 13 14 2 6 2 1 14 13 11 9 7 14 16 7 12 8 1 17 14 15 2 5 6
17 17 18 3 14 15 17 2 15 10 10 16 1 4 13 15 17 6 5 9 13 9 8 3 3 8 8 1 12 19 2 7 9 9 4 8 3 17 1 17 13 7 12 4 6 11 12 5 7 2 17 9 16 15 12 8 10 16 1 6 8 16 10 16 9 3 8 11 19 6 12 1 5 7 15 7 17 4 16 12 16 3 13 11 3 12 10 13 17 15 17 7 16 14 10 16 17 16 14 4 3 1 6 2 9 17 5 10 19 6 11 7 19 8 10 5 4 19 14 17
12 15 14 4 8 6 4 10 16 18 9 1 9 12 9 15 17 11 2 5 7 1 13 11 5 11 7 9 5 6 13 18 3 17 12 8 6 3 14 4 13 14 13 2 16 11 17 7 18 14 8 12 17 9 11 12 2 4 19 16 18 15 6 11 6 11 18 12 1 2 9 14 17 17 12 13 7 12 15 13 14 19 10 10 17 2 1 14 6 19 6 3 4 17 5 18 8 2 15 6 12 6 6 17 6 13 15 1 17 17 5 10 8 6 3 19 6 15 14 5
11 5 6 2 16 7 11 19 12 13 5 5 16 10 2 9 13 12 5 4 6 19 17 9 15 16 14 18 15 6 13 13 8 11 14 8 19 5 2 19 3 15 8 4 13 19 14 18 4 14 6 13 11 10 18 11 8 17 6 1 12 13 5 7 1 12 17 5 15 14 9 8 11 6 2 11 12 13 16 15 2 15 14 1 1 1 2 18 13 4 19 3 19 2 7 9 10 2 4 1 3 9 4 10 6 17 2 6 8 7 18 14 1 11 18 16 19 5 7 19
11 18 12 11 14 7 9 10 18 13 2 11 10 15 12 13 12 4 15 3 18 16 10 6 5 5 2 9 3 11 10 6 15 4 10 5 17 13 16 18 9 11 7 15 6 8 5 6 18 5 5 15 9 4 1 14 9 6 6 9 5 1 7 8 4 15 15 6 6 8 16 18 8 16 14 8 9 15 19 16 1 16 10 18 7 14 16 11 3 15 15 11 7 7 14 8 5 19 12 10 12 19 1 10 9 6 7 13 10 13 6 13 6 9 9 9 10 9 1 9
19 5 3 10 12 5 11 2 2 6 3 9 4 10 4 1 16 1 9 2 7 4 2 9 10 3 5 18 17 6 18 15 19 3 11 8 16 10 17 4 14 6 11 4 10 16 10 16 5 8 13 10 1 19 3 16 3 14 19 10 1 13 4 16 8 8 10 2 18 16 5 6 3 5 7 1 12 17 18 14 12 8 13 9 13 8 15 19 19 14 5 3 11 7 4 2 2 14 16 3 6 9 17 9 4 8 8 15 12 2 4 6 15 6 18 12 19 14 4 19
13 10 2 4 11 3 14 15 2 6 18 17 2 16 8 3 10 5 6 6 1 19 8 17 11 19 7 6 9 11 2 7 11 16 10 15 8 14 17 1 13 12 14 7 3 6 4 19 17 15 3 15 9 18 19 13 3 4 13 11 15 9 6 10 5 11 7 6 7 13 15 16 7 5 12 8 6 1 15 5 16 8 8 13 9 6 18 13 16 16 12 4 1 6 5 4 7 4 2 11 19 17 12 4 1 6 9 4 6 12 8 2 9 9 15 8 2 13 2 18
13 14 10 10 1 11 16 1 1 9 2 3 18 4 6 18 15 4 12 3 17 15 8 5 9 10 15 12 11 17 3 13 2 4 18 5 8 3 3 10 10 8 3 16 11 5 4 6 3 17 12 17 1 19 2 17 7 5 1 11 15 4 10 3 7 8 1 15 5 1 10 13 1 3 13 9 12 11 14 4 7 10 9 14 5 5 13 3 2 2 18 3 2 12 14 6 18 1 10 3 5 8 2 2 7 19 16 17 7 13 6 15 11 17 4 6 15 15 18 2
14 18 14 4 2 7 11 9 9 7 10 12 2 11 19 19 9 8 7 6 9 15 16 9 15 4 12 5 8 8 11 4 2 9 8 6 14 17 19 19 8 8 9 19 3 14 14 1 17 5 17 8 8 12 12 19 3 5 8 18 15 6 1 1 16 7 10 12 3 13 5 11 8 8 17 1 7 16 6 2 9 12 7 4 11 4 15 10 16 9 4 9 10 2 5 3 8 8 3 16 4 2 17 5 1 6 19 1 15 11 12 6 18 7 9 4 19 17 10 13
11 1 16 14 10 15 2 7 4 15 13 19 13 10 17 8 14 3 3 5 4 15 14 5 17 17 10 3 12 1 3 10 18 10 5 4 6 3 14 5 5 13 16 19 18 13 12 9 9 2 9 16 14 5 9 16 6 11 17 13 6 18 14 3 12 3 1 4 5 14 2 12 8 18 1 10 18 15 7 4 5 2 14 10 12 7 16 14 2 8 18 15 6 2 18 7 18 14 8 15 12 9 4 15 1 17 8 15 5 18 18 11 5 13 8 5 5 5 11 6
7 7 2 17 16 7 6 7 1 14 11 4 7 11 12 15 17 19 10 15 18 2 9 3 9 7 11 13 14 14 3 14 3 2 9 6 8 7 19 14 11 2 15 11 7 14 4 13 1 12 7 5 14 16 8 6 17 19 8 9 15 13 12 6 11 17 1 6 3 7 8 10 1 16 4 16 6 18 15 15 4 18 12 2 8 17 19 7 13 4 8 8 19 11 18 17 10 10 19 10 13 17 10 14 4 17 5 18 12 12 19 18 4 13 5 17 2 10 18 14
17 14 12 19 18 1 11 9 17 6 7 16 19 5 2 6 8 17 18 11 12 1 15 2 5 10 4 7 6 1 16 19 12 5 12 19 6 11 16 4 6 15 2 6 6 3 19 18 12 18 10 4 12 7 3 16 18 10 14 9 16 5 4 17 10 8 5 15 13 2 1 16 2 14 5 16 19 10 16 2 11 5 15 8 10 13 7 5 3 15 2 15 16 7 8 2 12 4 16 18 17 4 6 10 18 14 2 18 3 6 17 8 14 13 18 11 10 16 7 16
1 1 13 17 19 5 19 14 7 3 4 15 14 18 4 7 18 5 10 16 11 9 2 16 18 13 2 4 9 16 12 16 17 19 17 17 11 9 11 13 14 8 11 19 2 2 14 15 9 12 12 5 6 10 6 12 18 17 18 7 4 16 6 11 11 8 18 14 1 7 15 10 14 16 2 4 18 2 14 17 18 6 14 17 4 7 10 7 14 6 18 14 11 5 10 18 2 1 9 14 3 1 14 3 16 3 11 9 9 2 14 17 3 2 8 17 2 8 7 4
17 12 19 15 8 2 18 10 7 4 2 17 13 19 14 18 11 12 2 1 16 1 18 13 11 2 11 9 16 12 17 13 13 5 16 11 1 18 14 15 4 2 2 5 19 16 4 4 8 10 6 9 7 6 8 16 13 7 5 7 10 10 13 15 7 8 5 8 4 3 17 12 17 6 17 15 18 13 13 15 18 8 2 7 6 8 7 7 17 19 17 14 14 8 6 14 8 7 18 12 12 15 1 5 13 14 12 2 9 12 18 1 14 10 9 2 8 7 9 18
2 17 10 4 5 3 18 9 1 3 7 12 15 1 4 3 8 16 14 12 16 5 18 6 2 17 19 5 19 4 6 2 17 19 10 14 5 16 19 10 15 3 1 6 5 6 5 13 6 6 14 11 13 17 3 16 19 5 2 8 4 13 10 17 16 6 14 16 11 9 17 11 17 5 16 13 5 12 1 15 12 7 18 13 9 15 8 1 16 14 15 1 14 12 7 3 13 4 10 19 12 9 3 17 9 3 14 9 1 10 12 7 5 7 15 16 14 16 8 2
17 14 19 16 14 17 17 6 17 14 1 2 3 2 4 4 4 2 4 7 1 19 19 7 3 8 15 8 16 10 8 16 15 8 2 17 10 6 3 12 6 9 11 6 9 10 5 4 3 12 12 13 12 2 1 17 14 13 14 6 2 9 9 8 7 5 6 14 19 6 14 18 18 12 1 12 9 13 17 12 4 11 6 4 17 15 4 14 7 4 3 16 12 16 11 17 19 3 19 5 4 10 4 16 18 14 14 1 1 9 9 2 16 3 3 10 4 5 10 12
1 12 7 16 4 17 6 3 1 4 13 7 14 13 8 13 7 9 6 3 1 3 13 18 15 2 1 10 14 1 13 14 12 8 4 12 3 8 13 1 8 12 19 17 15 3 7 4 14 10 3 14 19 8 11 18 19 9 2 2 17 16 9 1 10 19 14 6 9 16 10 19 16 5 14 9 3 16 3 13 14 16 15 4 17 19 14 5 17 6 13 14 7 12 4 12 3 19 7 16 8 2 14 18 19 4 18 15 13 2 15 4 6 8 7 1 2 5 4 11
5 9 9 3 4 16 13 4 1 3 7 4 9 7 5 13 3 17 5 13 1 19 12 15 11 9 8 18 5 3 11 18 15 16 12 19 12 11 15 4 11 14 14 10 15 11 14 19 4 14 18 4 1 10 10 6 16 14 12 14 8 14 19 17 12 8 9 13 15 5 1 11 3 1 3 6 5 3 1 1 15 9 14 11 5 7 17 6 6 6 3 18 19 1 15 16 15 16 17 7 3 2 5 18 13 7 2 19 7 5 1 14 13 12 18 18 1 9 13 6
10 3 7 9 2 3 12 2 6 7 11 8 5 13 18 13 5 15 18 17 5 18 18 2 6 9 5 8 3 16 16 7 4 11 16 19 14 15 16 10 15 1 14 1 13 12 9 1 14 5 14 5 11 16 2 12 5 6 3 13 18 5 19 9 10 5 5 14 16 18 19 9 18 8 2 5 5 17 8 13 19 5 13 17 3 12 15 8 10 5 14 8 12 4 12 11 2 6 11 9 8 15 4 15 6 5 6 3 14 17 8 8 18 10 14 14 11 3 6 18
9 17 4 11 5 11 16 15 15 10 3 19 7 19 6 5 1 18 11 18 6 13 13 13 17 6 10 3 10 18 1 19 19 12 19 10 12 12 10 14 8 10 7 4 14 8 2 19 5 10 13 12 11 8 12 16 5 10 14 18 2 14 6 17 10 4 19 14 19 15 12 8 9 17 10 16 6 9 19 9 5 10 17 19 5 9 9 12 19 4 6 2 18 11 12 14 4 10 14 11 9 7 19 10 17 6 4 14 18 16 10 15 11 5 14 11 17 6 12 1
15 8 15 15 10 11 9 17 5 16 12 16 15 9 1 18 11 8 3 19 6 14 13 4 14 10 11 14 17 2 17 17 17 13 15 1 12 5 1 7 17 6 9 3 4 14 1 2 5 15 1 9 4 13 15 1 14 11 2 19 19 15 1 4 18 14 18 2 13 19 7 6 8 16 2 19 5 11 19 1 10 9 9 2 1 8 14 5 17 15 7 1 4 1 7 2 6 6 4 9 15 18 9 5 9 14 2 7 11 16 15 3 11 1 9 10 6 18 4 11
1 13 5 17 13 6 3 7 9 1 14 19 8 11 5 12 19 5 12 6 6 7 14 2 19 4 9 3 12 16 16 7 3 13 9 3 14 11 12 3 12 15 17 11 2 16 15 1 16 16 10 2 6 17 5 13 19 3 17 10 17 1 14 12 4 8 16 15 2 3 18 9 12 9 13 10 9 3 1 4 8 9 6 15 6 15 1 5 8 16 3 11 14 2 6 12 2 6 8 14 19 1 19 14 18 2 9 17 4 14 4 17 3 14 3 8 14 18 7 9
7 12 8 5 1 7 14 11 3 2 9 4 15 6 5 8 10 12 17 4 7 4 2 13 13 6 9 1 19 18 17 3 18 19 7 7 13 14 14 12 7 17 14 2 6 19 2 16 9 15 18 2 2 3 2 4 11 14 12 14 17 14 11 5 5 7 6 16 18 17 14 16 18 5 16 9 10 19 8 14 4 12 11 5 19 16 2 16 17 4 16 18 2 19 15 13 7 9 17 18 14 5 18 11 1 3 3 16 6 13 13 11 7 18 11 5 4 7 6 9
5 9 19 14 2 16 14 19 10 4 3 2 2 9 1 18 14 1 5 17 13 5 11 4 11 5 12 4 8 10 9 19 4 9 14 5 6 4 10 4 9 4 7 2 11 12 10 17 18 12 11 3 2 9 16 1 18 15 4 16 4 10 11 19 14 3 18 12 15 15 12 10 10 1 8 9 17 9 13 18 15 15 6 16 19 7 18 14 13 13 7 11 19 14 1 18 12 7 7 8 14 17 3 3 19 1 13 2 1 7 3 9 2 6 2 9 5 15 1 8
5 4 19 2 9 2 11 16 1 10 16 10 2 5 4 17 13 3 16 18 13 16 14 7 10 17 9 14 13 12 13 17 6 18 4 11 17 1 14 17 10 16 2 10 10 12 7 16 2 4 16 2 18 3 15 8 9 13 12 11 13 16 4 9 16 19 5 4 2 13 19 13 9 18 9 17 15 4 16 17 11 12 12 9 15 11 19 4 4 16 2 5 8 3 5 13 13 13 13 11 8 4 15 9 4 4 13 19 13 17 12 6 17 14 1 2 4 14 13 6
1 1 19 5 11 15 5 7 14 15 5 3 10 6 9 7 16 4 6 12 18 19 10 7 4 16 8 14 2 4 10 18 19 8 11 8 5 11 17 8 18 7 5 18 13 10 15 11 5 14 5 1 9 1 7 1 10 13 2 15 8 10 5 11 6 6 3 2 15 2 2 6 7 17 13 12 14 12 13 14 1 16 9 8 18 9 10 19 2 10 17 12 10 2 1 8 3 14 12 8 7 13 16 3 12 19 14 11 7 15 7 17 19 7 14 11 2 16 12 16
16 4 1 5 5 10 16 5 16 5 10 1 1 6 7 8 19 6 16 19 15 18 12 6 4 19 12 3 7 10 7 6 2 15 11 4 12 11 18 2 3 9 14 2 6 6 17 14 19 7 11 15 1 13 1 18 11 14 2 5 18 14 17 7 18 4 18 5 14 4 15 8 8 14 16 7 4 10 1 17 2 17 3 1 18 11 6 9 14 13 13 18 10 13 4 9 12 8 4 2 8 13 1 16 12 3 8 6 16 14 14 1 13 5 4 1 11 17 8 7
18 10 10 2 11 17 18 14 11 8 14 16 7 19 10 9 17 6 8 15 4 1 13 19 19 12 5 6 10 3 18 15 19 17 4 17 3 19 6 15 5 13 14 9 1 17 14 14 14 14 4 5 9 12 3 18 17 10 2 18 12 13 4 8 9 19 17 10 16 12 6 18 1 13 11 10 6 4 19 3 18 10 11 15 19 13 7 7 14 6 1 12 17 7 3 12 9 6 19 1 19 4 18 3 9 6 5 15 2 13 12 13 11 19 1 2 2 9 9 16
13 10 16 10 12 13 1 13 11 19 1 19 5 19 3 14 12 9 7 14 8 11 6 2 13 7 2 18 7 1 10 1 17 3 8 10 8 8 10 15 5 12 5 3 12 13 8 11 17 6 9 13 2 15 9 2 5 14 17 5 11 3 6 10 10 19 3 2 11 13 7 5 18 12 9 15 7 4 10 1 18 11 2 2 11 16 19 2 14 6 5 13 10 5 4 3 6 15 12 12 11 6 19 4 19 5 14 9 6 13 14 2 5 17 7 1 2 5 18 13
1 1 8 6 8 13 14 14 9 7 9 12 11 17 10 12 11 17 2 7 2 10 16 2 11 4 8 13 18 3 1 2 17 19 12 10 18 14 15 6 11 1 1 19 4 3 11 8 7 14 10 4 3 11 11 10 5 7 14 5 6 1 15 6 6 8 15 11 6 19 14 16 2 16 16 2 10 16 18 9 13 1 7 5 12 17 18 6 8 2 6 12 1 11 1 10 6 14 14 15 8 19 2 8 1 14 3 7 15 10 1 8 9 5 12 5 14 10 14 9
9 10 3 4 13 3 15 11 15 6 15 15 3 3 2 13 18 18 5 17 14 12 10 18 2 17 4 16 18 15 16 15 1 6 6 18 16 18 14 18 18 12 11 10 14 6 6 6 4 18 7 15 6 16 14 17 19 5 3 16 18 19 12 1 9 19 14 16 16 4 17 1 5 7 18 3 2 1 4 15 11 17 12 19 9 1 10 5 11 9 18 11 15 18 19 19 19 11 1 14 11 10 9 1 2 7 11 19 17 11 16 19 2 7 5 2 7 13 11 9
10 10 6 8 5 6 5 7 8 19 4 10 19 9 5 2 9 12 18 3 10 10 7 19 12 19 10 9 13 18 12 6 19 12 4 2 5 2 15 15 2 4 12 17 8 6 19 12 3 3 12 15 15 9 18 1 3 6 15 5 15 16 13 10 8 17 11 8 5 4 17 8 17 3 1 6 18 9 12 7 1 18 6 11 6 17 11 11 13 4 18 18 6 10 19 6 11 3 10 11 15 11 8 19 5 5 18 12 8 12 2 13 13 9 5 17 10 3 4 11
6 1 15 1 5 18 2 7 3 14 15 16 19 2 12 9 11 7 6 1 19 19 3 1 3 5 6 16 5 3 16 8 18 19 5 15 16 7 14 6 4 11 10 13 17 5 14 12 17 15 7 3 16 4 11 7 17 14 18 1 13 5 2 1 18 7 18 19 17 17 13 4 13 19 17 8 10 10 4 17 10 14 19 10 15 14 12 14 8 18 17 2 8 13 13 18 9 9 15 10 7 14 14 1 3 3 9 16 6 4 17 8 11 2 10 19 6 12 6 5
15 4 12 19 19 11 16 19 7 19 18 1 15 13 10 15 19 19 7 12 5 15 9 5 1 10 11 7 3 14 12 17 4 11 15 4 3 15 1 11 7 10 10 7 5 16 12 17 11 14 19 6 6 13 19 1 15 8 18 10 1 10 16 12 7 2 17 5 18 7 13 4 18 15 6 14 5 2 19 5 17 13 15 9 14 6 11 10 11 14 8 15 17 11 11 17 13 17 1 3 18 8 19 5 2 16 8 10 7 5 15 14 8 13 12 7 14 8 18 1
10 7 13 4 18 17 6 7 5 9 2 7 2 17 6 9 13 11 7 18 18 2 3 6 18 14 8 5 19 4 3 6 19 19 12 11 15 15 6 4 10 1 6 18 4 9 12 11 7 3 13 4 1 19 2 9 4 8 6 4 10 2 8 1 6 16 8 2 5 14 14 18 5 4 8 17 16 5 3 10 2 16 17 16 10 18 5 19 17 4 8 7 10 2 13 9 13 5 12 8 1 11 7 13 9 15 19 17 11 4 12 19 6 15 2 14 5 12 10 8
11 8 4 1 7 7 8 3 10 19 5 11 12 14 9 11 10 5 7 15 19 7 8 13 11 8 2 15 1 19 4 1 15 5 16 13 7 6 6 3 8 16 7 12 18 2 7 11 7 11 4 1 5 15 8 4 19 10 10 19 5 13 3 11 15 5 16 8 17 16 4 5 18 5 7 3 19 16 15 10 1 11 8 9 15 4 16 1 17 12 13 17 16 7 17 14 14 16 16 14 5 19 13 10 7 19 2 1 8 5 5 4 15 19 18 14 5 13 16 12
9 15 11 6 3 7 8 12 8 13 9 4 1 1 5 2 17 18 3 15 3 16 13 12 8 10 2 16 8 3 10 2 1 4 6 10 9 8 8 19 11 9 12 15 15 1 3 15 15 16 17 7 11 1 9 12 3 18 17 13 5 12 5 5 3 8 4 16 14 15 13 9 10 3 4 14 4 18 17 7 8 7 2 12 6 4 10 19 15 13 7 10 11 15 15 19 5 8 12 8 17 6 1 19 3 8 16 8 17 15 9 5 1 10 5 18 11 12 18 19
17 4 2 2 8 3 18 15 8 5 9 15 6 9 10 2 6 2 9 18 7 3 3 1 4 2 9 1 10 16 9 12 10 13 10 13 5 19 11 19 9 1 1 12 6 14 19 12 1 4 12 9 4 1 12 15 2 1 17 7 13 18 6 11 16 17 6 13 19 16 17 7 10 9 9 7 2 10 14 10 3 17 19 6 4 19 9 9 1 15 12 4 3 5 7 11 14 9 16 8 8 7 12 5 7 6 18 14 11 6 13 12 6 7 4 15 18 1 8 17
9 16 12 4 5 13 4 6 3 18 12 13 13 7 3 16 6 15 19 17 1 14 18 15 2 19 17 15 1 11 12 14 1 19 19 12 14 9 1 13 2 13 12 13 14 1 18 19 5 8 10 4 1 11 16 15 18 17 2 5 15 9 5 12 6 17 12 14 7 11 2 16 15 6 15 7 2 6 2 2 2 17 11 13 1 9 14 10 3 5 13 17 7 15 18 13 8 1 7 16 9 4 13 14 6 14 9 14 15 9 13 13 16 1 3 17 17 12 12 17
4 2 11 3 17 5 10 19 8 2 18 2 18 5 13 17 5 17 7 7 1 19 15 13 11 1 2 6 13 1 16 16 8 9 13 7 13 11 16 2 4 9 7 13 11 12 14 11 8 6 12 1 5 6 17 4 6 17 11 16 4 5 7 8 6 3 13 9 11 6 5 14 1 6 3 11 13 3 3 19 7 10 18 7 8 15 12 3 12 10 1 15 19 1 18 19 3 18 7 8 18 5 1 2 2 18 19 18 3 7 11 4 14 12 10 13 6 19 1 10
11 11 17 2 5 9 15 1 8 4 8 14 15 14 1 2 10 16 6 10 15 13 19 5 18 17 1 8 10 5 13 4 18 16 17 8 8 18 17 12 3 19 11 19 19 17 8 19 11 9 3 10 13 11 14 18 11 12 3 8 9 8 10 3 10 4 15 18 17 13 14 11 18 14 7 15 2 1 6 2 9 1 16 2 2 3 10 8 2 19 16 15 16 10 4 15 10 8 9 15 2 9 3 18 15 11 11 19 4 18 16 11 6 2 18 8 11 8 2 8
13 7 17 17 16 18 15 9 10 11 6 14 12 11 19 19 17 18 7 11 11 11 4 3 4 6 9 14 11 16 5 2 7 2 2 15 12 6 2 16 15 2 9 13 13 3 18 15 2 19 10 13 2 10 16 3 3 14 14 10 9 2 18 14 7 4 7 10 10 5 7 12 16 10 15 10 3 11 10 2 7 14 13 11 6 11 1 16 5 19 12 18 12 12 8 14 4 14 7 10 15 8 6 16 12 18 16 11 15 7 19 12 5 12 3 14 8 7 9 15
3 11 6 11 13 9 19 5 3 1 7 9 5 1 6 18 9 17 19 7 15 10 2 18 19 1 14 19 9 13 7 16 5 11 7 5 3 14 4 4 18 11 8 14 19 11 7 4 7 4 6 11 8 2 19 12 10 7 11 12 14 1 16 10 14 11 4 13 13 2 16 14 13 15 9 4 3 7 18 9 13 10 13 6 8 16 8 3 11 14 14 16 4 11 10 18 15 18 1 9 7 14 11 5 8 11 17 13 13 15 10 3 8 3 19 4 7 11 2 18
3 1 2 18 7 19 11 3 6 10 9 4 6 9 2 19 19 8 17 17 18 14 10 15 5 12 8 2 11 6 12 5 16 3 7 6 12 12 17 8 19 15 8 3 7 6 17 19 1 1 5 18 13 5 19 9 11 7 14 15 12 10 11 19 18 5 8 3 3 16 7 8 11 10 17 4 7 7 9 18 14 9 1 11 2 13 12 12 4 17 15 6 17 3 15 10 4 9 5 3 18 14 16 5 13 17 8 4 7 16 3 4 17 15 2 4 9 1 18 6
13 15 19 5 1 2 10 8 14 7 19 17 3 7 1 19 12 16 17 4 5 8 5 7 15 11 8 2 2 12 1 4 10 19 10 4 15 11 4 11 7 19 9 1 17 5 2 11 15 2 12 13 3 14 1 5 10 12 10 9 13 8 7 3 6 15 8 3 16 17 5 1 12 7 17 5 19 5 10 11 10 17 6 19 19 8 2 16 18 6 13 3 2 14 17 19 13 7 14 3 17 18 14 18 16 11 1 15 17 15 6 5 3 19 19 16 2 7 3 18
---
4 9 3 11 6 9 4 2 12 15 3 16 2 13 19 18 13 10 6 4 1 16 9 19 5 8 6 18 18 15 19 10 12 10 18 10 16 16 14 2 1 1 5 18 5 18 12 3 18 14 4 14 11 3 16 8 1 4 6 18
4 5 4 16 15 12 4 11 14 9 3 16 16 4 4 1 11 10 14 7 16 3 19 4 11 6 19 10 14 11 9 12 11 15 17 15 17 9 3 13 14 1 9 9 11 8 17 7 18 15 16 11 9 19 3 2 6 19 5 10
13 14 17 3 19 10 6 2 6 8 3 3 7 2 12 15 14 10 13 4 8 12 12 18 15 18 4 12 13 16 10 18 4 13 1 1 4 6 10 1 2 16 2 10 13 14 4 8 7 7 7 15 7 1 2 1 2 18 8 1
7 14 8 9 18 4 18 14 2 11 12 9 1 12 3 11 10 2 5 1 15 16 5 6 10 15 12 4 11 19 18 6 17 9 14 8 9 12 12 9 16 9 6 15 15 18 14 14 18 11 10 1 13 7 6 11 9 3 19 4
12 14 4 3 13 6 11 12 18 14 3 18 9 16 5 6 10 10 10 11 1 17 6 19 9 17 12 10 3 3 19 6 13 9 17 2 6 4 3 9 7 3 16 4 9 12 12 17 3 19 2 19 12 8 3 14 9 4 14 15
14 1 9 16 15 16 6 1 19 4 19 6 7 1 5 18 2 2 11 16 6 15 8 4 1 19 14 5 6 3 12 3 10 8 15 6 13 1 8 12 7 11 18 18 19 15 12 12 4 5 12 8 12 17 9 18 13 6 15 16
3 1 15 16 12 17 16 19 6 18 6 2 14 19 9 14 17 9 4 6 7 3 2 1 10 5 11 12 18 16 13 7 5 12 10 7 16 2 7 3 19 13 7 5 19 11 13 12 8 14 2 5 2 9 9 1 18 14 6 7
6 4 2 9 6 18 16 2 10 3 18 15 2 1 6 14 16 16 2 19 11 18 4 4 15 8 5 15 4 9 8 3 16 19 16 15 12 17 19 1 14 12 3 6 16 7 3 1 4 14 5 2 12 6 16 8 19 17 14 17
13 1 18 1 14 15 18 2 5 11 3 18 17 2 6 19 16 18 7 8 5 4 12 9 5 6 10 11 4 9 15 14 4 2 8 13 14 3 11 1 8 2 16 12 12 6 5 11 19 17 12 2 11 6 13 9 9 9 15 8
5 8 17 15 15 8 14 16 13 13 6 13 7 6 1 4 8 19 17 18 2 19 11 7 17 14 4 17 9 18 5 5 7 3 15 1 4 2 17 4 12 9 17 7 12 18 14 5 6 9 2 9 12 17 7 6 16 11 17 1
5 17 7 15 9 1 7 4 10 1 19 6 3 14 7 13 3 5 15 19 19 19 12 19 17 15 13 9 16 10 4 12 4 16 18 14 2 3 17 11 11 10 14 6 10 15 7 18 10 14 4 12 16 18 2 6 5 8 18 13
8 18 8 1 16 7 3 6 15 12 11 1 7 4 9 9 5 7 10 2 9 15 18 3 7 11 16 6 15 13 10 13 5 5 4 13 3 13 9 3 12 1 3 18 3 4 6 12 10 13 1 18 18 16 5 12 19 6 14 5
10 17 11 3 2 17 15 3 1 15 7 11 17 7 9 9 12 1 19 4 6 5 15 3 12 12 15 8 1 11 14 16 19 4 12 15 10 1 16 5 8 4 11 14 6 9 1 11 7 15 1 18 7 11 19 6 2 9 10 10
3 8 2 10 2 10 12 14 15 14 19 11 5 15 15 3 13 2 16 3 12 4 2 5 10 15 10 9 5 7 14 1 10 6 2 1 2 2 12 15 17 6 16 13 16 9 14 11 15 17 12 19 13 8 17 18 6 17 19 7
1 4 10 8 1 18 1 18 13 15 1 12 10 1 5 6 7 9 8 2 1 18 13 7 14 14 8 3 9 3 14 5 3 6 15 14 16 8 12 18 8 16 18 19 16 19 10 12 3 12 12 17 10 18 6 2 10 3 14 7
10 18 10 10 2 16 10 5 5 11 10 18 16 9 13 5 19 14 11 14 4 16 19 16 11 16 14 4 19 13 4 14 14 6 8 9 7 9 18 19 10 6 7 12 2 13 1 1 5 2 2 16 12 19 3 14 19 13 18 5
2 6 5 11 7 16 4 10 2 4 17 11 15 11 5 18 9 8 14 18 16 14 19 18 12 8 2 15 4 13 10 14 10 14 18 4 1 16 5 6 9 11 18 2 4 11 1 1 14 4 6 12 18 1 9 7 7 7 19 19
14 9 7 8 14 4 1 2 13 1 18 12 3 9 9 6 15 17 14 1 7 2 1 1 8 17 15 10 5 11 17 14 16 5 12 1 4 11 8 1 10 19 8 14 6 13 9 10 11 4 12 9 12 18 13 12 8 6 19 16
8 11 16 3 4 4 16 18 16 9 2 5 10 14 11 8 14 7 15 14 8 6 18 2 19 8 2 17 12 19 12 18 11 11 13 19 3 5 10 2 17 11 13 3 2 8 19 18 8 6 18 1 11 6 8 2 12 14 4 15
3 18 6 17 16 4 13 18 1 11 5 9 16 14 17 17 13 16 19 12 9 3 10 7 2 11 7 6 4 11 7 8 2 14 18 18 5 16 7 18 14 1 17 16 1 10 5 17 8 11 8 16 15 12 7 1 9 19 16 5
16 7 15 10 5 16 7 2 15 19 12 17 10 1 17 8 5 13 6 11 7 10 17 13 3 11 13 10 7 18 9 6 19 2 3 8 6 8 12 4 3 3 2 9 18 11 7 14 14 19 15 16 13 5 17 6 10 2 7 13
4 16 14 17 10 6 17 8 18 10 2 16 2 2 8 5 9 8 14 12 5 19 15 8 3 13 13 15 5 16 18 4 2 18 1 7 8 4 19 13 13 19 15 5 18 18 15 11 16 13 17 2 8 14 9 5 1 7 14 17
13 3 3 3 12 17 14 3 2 2 16 5 9 2 18 5 4 11 10 5 17 2 18 12 18 16 16 8 10 16 6 2 10 2 19 11 16 13 13 1 5 12 10 15 16 12 12 6 15 4 1 10 17 10 19 11 4 11 4 15
2 7 13 5 15 15 15 8 2 8 9 10 17 9 19 6 12 3 15 6 5 10 13 6 16 16 4 1 2 9 7 5 10 18 19 17 19 5 1 1 17 5 5 7 15 10 12 8 10 14 18 1 16 17 10 11 14 8 9 19
11 15 6 13 1 5 1 19 10 2 6 8 3 15 9 1 6 6 11 6 4 16 10 8 10 6 9 13 8 8 4 12 15 1 9 3 18 12 6 10 10 13 17 8 8 11 17 1 8 10 6 9 16 4 15 15 5 17 3 15
16 7 11 3 18 14 12 3 6 6 2 14 19 1 15 10 18 3 19 19 8 8 5 17 3 15 15 12 6 13 18 1 9 11 14 4 2 14 10 14 19 15 15 3 9 11 10 16 9 5 16 3 17 4 7 8 3 14 19 3
19 19 17 12 8 1 6 8 7 11 9 4 13 6 19 12 12 3 9 11 6 19 4 1 17 16 3 5 4 6 2 8 15 7 15 19 18 3 15 8 6 2 9 17 16 12 9 12 4 14 16 19 5 9 16 19 16 16 15 12
17 1 4 1 10 1 9 6 11 1 13 10 7 2 6 5 10 6 4 5 7 11 2 10 10 2 4 6 10 15 3 3 8 4 10 6 18 9 7 15 3 4 1 4 2 7 13 4 3 12 10 10 13 10 5 7 18 14 11 9
17 4 15 16 18 11 2 4 11 1 6 2 19 8 2 4 10 18 9 4 9 19 4 18 6 12 9 17 18 4 7 4 17 18 18 19 8 5 5 10 5 9 12 3 6 8 11 5 8 2 16 1 6 7 1 17 19 17 10 6
2 4 6 7 13 2 4 2 10 3 15 6 13 18 18 19 7 1 12 17 2 5 10 16 8 6 18 11 18 1 19 11 15 19 8 1 3 5 9 4 5 10 15 6 6 10 8 7 8 1 11 18 6 13 4 17 14 9 19 7
4 13 4 10 3 5 11 13 11 18 17 3 11 8 12 12 10 4 10 17 18 12 3 17 10 1 6 2 15 10 7 14 6 3 1 12 6 5 3 2 19 14 15 10 4 8 8 17 1 12 8 10 18 2 9 12 10 6 19 2
19 9 18 2 11 3 16 9 7 1 6 5 1 9 17 5 16 12 14 2 13 8 2 4 3 16 15 4 13 9 2 1 5 2 3 11 16 14 18 1 12 18 11 19 6 4 9 10 5 5 15 18 11 18 8 11 7 15 18 15
7 12 16 18 18 6 19 19 6 7 8 2 13 14 9 15 17 2 17 19 8 6 19 9 13 4 9 7 13 11 4 2 15 4 13 19 3 12 2 1 4 10 4 17 16 14 5 17 9 12 14 6 18 19 7 2 13 7 5 15
16 13 6 15 3 7 6 10 1 10 13 5 1 16 15 17 3 2 13 19 19 12 17 2 16 18 3 16 16 12 7 15 7 6 5 11 4 8 15 9 8 14 16 19 19 9 5 2 5 9 18 11 13 6 16 5 16 5 18 5
4 10 13 9 3 18 17 14 12 5 14 14 7 5 12 5 16 17 2 7 13 2 11 7 13 15 2 2 10 19 15 19 10 10 5 17 2 7 17 2 11 10 10 1 15 5 5 9 14 11 8 18 3 11 12 3 19 6 16 8
16 16 5 12 10 14 4 16 19 14 4 9 1 1 15 3 12 11 11 9 11 12 7 18 12 16 16 18 17 2 18 15 11 10 5 15 6 17 10 2 1 8 10 19 8 18 18 2 15 10 11 8 14 8 16 4 9 6 1 14
17 6 19 17 16 8 18 11 16 1 16 14 1 10 8 4 3 8 11 13 17 15 4 8 11 10 1 4 13 1 6 19 17 16 4 15 9 12 4 19 19 8 6 14 13 17 7 5 19 13 2 2 15 7 16 3 2 11 7 6
8 15 17 15 15 17 16 5 7 12 14 11 5 11 13 9 9 9 15 14 4 16 4 19 19 5 5 11 19 1 13 17 5 17 12 5 10 11 19 16 1 3 18 7 18 11 16 4 13 8 14 13 16 13 3 11 11 18 16 11
12 6 5 6 19 16 6 8 19 9 18 18 9 19 13 2 18 17 1 9 8 1 18 12 7 1 2 12 15 1 14 12 15 9 4 15 18 13 8 2 5 9 5 5 9 15 4 16 19 2 13 14 17 7 3 12 8 12 18 18
15 13 12 18 15 6 4 1 15 17 3 6 9 18 4 18 16 13 4 11 17 5 12 14 8 19 15 8 6 12 8 6 14 9 7 12 17 7 10 3 12 3 2 3 18 8 6 18 4 5 15 14 9 7 2 10 2 18 10 15
11 15 15 4 10 16 11 19 11 12 2 9 4 1 18 14 4 10 15 19 14 16 5 1 16 14 17 7 8 17 11 18 16 14 12 17 8 17 12 2 16 6 7 11 3 6 10 9 9 8 6 11 3 11 2 14 11 14 8 15
19 5 12 14 2 3 13 10 8 2 7 7 17 14 3 9 9 13 18 10 5 9 18 19 11 19 15 6 13 17 6 13 10 16 3 12 13 13 10 19 13 19 1 7 1 19 13 9 8 13 5 18 16 17 11 10 6 12 4 2
8 8 17 10 15 13 16 1 12 10 15 16 3 18 17 5 9 11 18 11 6 7 17 19 12 8 17 13 5 12 6 1 9 9 12 6 3 10 11 8 3 12 17 17 17 9 15 18 19 7 2 15 14 12 15 1 10 17 17 8
16 4 15 19 5 14 7 13 6 12 3 18 19 11 9 13 10 1 3 4 12 18 13 18 11 11 7 17 13 12 15 5 12 4 11 19 16 18 13 3 2 2 13 8 5 3 15 3 4 2 11 10 15 13 15 17 11 17 8 13
8 10 19 13 16 17 7 16 19 10 16 12 7 19 3 10 6 5 13 9 16 4 14 12 1 6 9 18 8 13 8 19 10 19 15 11 3 19 12 8 16 18 3 14 5 19 3 16 11 6 12 7 5 19 17 4 15 8 12 10
8 8 8 7 2 17 2 7 5 12 8 7 12 6 13 17 2 1 7 2 4 13 8 3 2 2 15 11 3 11 16 14 7 3 19 8 11 16 12 7 17 15 12 19 17 6 14 18 6 1 3 14 1 11 7 14 1 6 6 1
3 11 5 13 15 14 19 10 6 5 7 5 9 19 5 8 2 9 6 15 7 16 5 2 8 2 13 16 16 5 8 5 11 12 5 6 10 18 4 4 6 5 12 2 14 17 6 2 6 18 13 11 19 10 13 6 7 4 5 14
1 4 14 2 17 2 14 16 15 18 17 3 6 3 10 3 4 4 8 11 15 12 10 17 12 16 5 2 18 18 19 7 13 9 3 2 11 11 4 13 4 10 6 8 1 10 6 17 19 11 3 3 16 14 19 9 14 16 9 2
16 13 17 16 18 10 10 16 19 9 11 13 19 14 8 6 6 3 16 2 11 8 2 8 16 17 11 19 10 14 8 14 2 3 16 10 12 9 9 10 1 10 18 11 19 9 3 2 7 13 3 11 1 8 10 9 11 10 1 2
19 11 6 6 2 17 11 17 17 17 13 16 13 6 2 1 9 11 9 7 14 10 12 16 11 16 14 14 12 8 18 3 9 8 11 10 4 13 9 2 18 6 4 9 1 7 18 14 6 10 19 1 2 14 8 10 18 9 14 6
4 16 5 10 19 11 7 6 15 12 16 16 2 7 8 8 6 3 16 5 17 19 8 3 8 18 1 15 19 2 11 15 18 4 18 2 1 14 10 9 19 12 19 14 13 4 18 14 6 19 4 16 12 10 8 4 9 3 2 2
10 12 6 13 1 2 18 18 8 7 8 12 12 8 5 6 1 13 9 5 19 7 10 19 18 15 3 8 16 15 13 17 12 9 18 7 6 6 14 11 6 1 7 19 12 11 4 5 6 3 3 15 13 16 2 4 3 7 15 6
19 11 2 13 13 10 19 3 9 17 19 14 19 18 19 19 19 10 7 7 11 18 3 14 12 18 5 16 8 14 5 19 11 9 12 14 18 14 6 3 12 1 15 8 3 8 15 15 17 3 4 12 19 9 14 1 8 8 1 15
6 4 15 15 13 19 4 11 6 5 1 6 5 5 15 11 4 14 11 4 3 9 18 5 11 12 1 2 14 11 7 11 13 11 17 8 5 1 14 3 5 5 9 12 2 18 8 14 14 4 17 14 16 16 13 16 5 10 4 1
19 3 16 14 18 10 13 14 7 7 6 3 19 8 19 18 19 7 3 13 5 6 8 11 14 12 14 17 17 1 3 14 16 14 4 2 8 15 13 12 6 13 8 7 17 14 14 9 17 15 17 18 8 11 15 13 14 6 1 6
15 16 16 7 5 11 7 6 5 17 10 5 13 10 8 12 18 2 14 19 18 6 19 3 4 5 7 5 18 10 8 3 14 8 17 10 17 2 2 6 8 8 4 19 5 13 5 17 4 4 15 13 11 2 8 10 16 13 3 19
5 2 8 14 10 8 10 6 13 18 14 17 19 8 12 10 2 1 18 11 19 10 1 14 14 15 11 13 19 8 13 4 18 3 2 6 19 10 10 17 3 19 4 6 9 18 13 3 9 17 8 15 14 12 19 14 1 14 19 14
16 17 7 5 5 11 19 17 7 6 11 12 11 2 9 1 6 15 5 16 2 8 4 2 19 18 9 7 3 7 5 6 10 15 1 6 13 18 2 18 19 16 16 3 7 16 4 13 4 19 9 6 9 4 12 8 13 5 6 6
2 12 14 19 2 5 3 15 1 3 8 7 13 7 17 6 12 1 15 4 14 16 3 4 18 18 17 6 3 12 12 9 13 16 17 7 2 17 2 3 14 8 12 1 11 2 13 3 6 7 16 12 9 3 11 6 9 11 1 4
8 16 13 8 11 19 14 17 10 11 4 14 19 13 10 6 4 3 12 17 6 15 1 16 16 1 19 11 5 11 17 11 16 18 14 17 15 5 10 12 8 15 12 15 3 3 12 16 12 6 3 7 19 4 17 12 16 16 12 10
19 3 13 18 13 13 18 2 18 12 10 18 13 19 9 10 3 5 14 14 8 3 18 18 9 11 11 12 1 3 2 19 12 19 12 5 3 14 2 9 4 10 18 1 15 4 13 19 14 7 10 11 3 18 3 17 5 14 9 3
2 6 2 16 10 11 7 14 7 4 8 8 4 5 10 17 5 17 4 6 17 12 17 13 13 11 17 14 17 15 1 8 6 18 7 18 9 2 10 4 17 19 12 10 19 2 8 17 9 5 12 7 10 4 6 10 8 8 4 19
14 12 16 12 4 19 3 5 18 11 8 3 8 19 9 17 19 8 14 11 4 19 6 12 4 14 18 3 13 16 11 1 18 11 10 5 3 1 7 19 19 3 19 17 16 9 18 10 14 8 11 1 14 12 16 14 7 5 8 9
2 1 12 2 1 8 4 16 10 5 14 18 1 14 12 1 1 8 15 14 15 8 8 5 6 10 7 7 14 15 17 18 12 18 18 18 11 17 16 9 5 3 1 10 14 13 1 1 1 16 13 18 9 14 13 14 12 7 16 11
1 17 2 15 7 15 6 2 16 13 9 4 12 7 10 13 7 17 10 12 10 7 6 18 2 18 10 18 5 4 6 5 2 6 8 7 1 5 3 18 8 18 4 8 7 10 7 3 4 1 7 15 16 4 1 14 12 3 13 9
6 7 16 12 7 5 2 7 18 3 13 3 14 12 5 11 3 18 12 11 12 7 15 5 17 11 8 18 5 14 15 17 11 14 13 1 3 12 2 2 9 19 5 2 8 5 1 5 18 9 12 13 11 3 17 18 12 11 15 15
17 4 2 5 7 15 11 1 19 5 9 11 17 10 3 12 3 14 17 12 11 3 19 15 2 3 7 9 16 14 9 11 16 6 5 5 18 1 14 12 14 19 6 14 19 2 16 1 19 6 16 18 13 4 5 14 5 6 3 5
8 2 4 5 16 18 14 11 5 18 14 3 19 6 18 11 17 5 15 1 6 6 9 11 17 10 17 13 2 11 1 12 17 9 4 12 16 1 18 2 7 5 15 2 12 14 18 8 5 14 17 19 10 3 18 3 13 13 8 6
1 2 10 14 17 2 5 11 2 6 15 16 7 14 13 2 11 7 19 4 12 10 8 7 14 2 2 15 10 2 19 3 13 12 1 6 14 1 5 10 9 7 7 18 19 1 12 16 10 17 11 6 14 4 14 11 13 4 1 16
1 10 2 19 7 12 4 15 13 7 7 10 3 9 14 5 4 9 8 13 9 5 6 12 11 14 9 9 18 9 12 11 1 8 10 19 6 7 12 8 16 17 3 3 10 2 3 5 10 9 8 5 15 7 7 15 4 9 9 12
3 15 16 4 15 16 9 15 19 14 18 16 17 1 17 12 3 3 2 9 12 4 18 9 2 8 15 14 2 14 15 17 17 19 5 2 1 18 8 14 12 7 5 15 10 11 8 15 10 14 13 1 7 1 1 18 16 8 3 7
1 15 14 5 18 2 18 17 15 15 12 4 15 7 16 5 18 4 18 10 1 1 4 7 2 15 11 17 18 6 5 13 16 1 14 17 13 19 16 9 12 10 19 14 3 9 6 19 4 16 19 13 9 12 7 19 11 7 4 4
10 2 18 10 10 19 8 15 13 19 11 19 7 9 17 10 1 9 5 13 9 11 13 3 6 12 5 4 14 14 6 7 16 13 19 11 11 10 5 4 1 11 7 5 5 1 7 19 15 16 18 3 3 10 14 18 8 16 4 17
15 5 1 18 13 4 3 14 10 7 19 11 5 2 13 18 5 9 17 5 6 5 9 17 16 4 5 6 18 1 4 15 6 7 8 16 10 9 11 2 18 12 9 8 17 8 17 2 17 16 14 18 18 18 12 10 16 3 3 10
19 16 15 10 4 4 6 18 13 16 9 16 18 16 7 13 16 1 1 8 6 3 8 3 7 5 16 7 14 18 19 7 7 1 2 2 17 18 5 13 2 19 9 1 7 17 1 3 12 18 13 15 3 14 5 17 9 13 4 18
7 19 4 14 17 2 10 17 15 6 16 18 15 7 7 7 14 7 15 9 4 14 15 15 6 5 5 12 16 4 13 4 14 6 7 3 16 14 4 5 7 3 7 7 3 15 1 15 7 18 3 2 17 14 14 13 5 8 9 12
17 17 2 11 12 13 4 9 1 4 11 1 3 10 2 1 7 9 13 10 5 9 5 18 2 12 6 19 11 13 18 8 6 12 8 10 2 16 14 10 12 11 15 3 8 3 18 8 13 13 7 15 14 18 8 9 12 4 9 1
7 4 17 7 6 3 14 11 3 12 19 10 14 4 18 13 13 3 10 19 13 18 7 18 7 3 13 7 4 19 17 18 7 13 3 9 13 8 17 5 8 7 5 1 14 16 2 11 19 15 15 10 13 10 7 9 16 19 1 4
9 7 8 4 15 2 4 1 1 10 19 6 5 6 11 7 13 6 4 11 2 3 8 9 4 7 6 16 7 14 12 14 8 14 15 1 18 2 6 13 13 1 10 10 15 10 6 7 18 1 15 10 16 9 2 7 19 19 19 8
15 7 14 7 17 6 17 11 10 11 9 11 1 11 18 2 12 17 14 14 2 18 18 7 18 2 17 18 12 9 1 19 2 18 17 6 6 4 12 9 12 14 17 8 11 4 10 6 11 1 14 3 6 6 7 17 9 8 8 15
8 19 19 1 10 9 10 3 13 12 15 8 5 5 2 8 1 10 15 14 12 12 7 11 14 18 13 16 11 19 17 17 15 17 1 13 14 16 18 2 14 8 12 19 6 7 17 1 5 19 17 18 13 14 4 16 12 9 7 11
16 13 11 13 14 18 13 8 5 8 13 4 12 13 19 4 1 8 5 8 2 13 11 12 3 19 4 2 13 5 2 6 10 7 6 1 17 18 5 7 13 9 16 16 6 13 6 1 14 19 15 4 4 18 9 4 3 18 11 15
14 11 14 19 7 8 14 6 7 18 7 2 3 17 14 12 16 15 7 10 13 4 8 14 9 17 2 11 17 3 18 18 8 10 13 3 14 16 10 18 19 1 14 15 12 14 2 6 5 16 7 7 12 2 2 11 4 1 11 9
6 3 8 4 19 9 13 13 5 12 18 1 5 8 11 13 9 12 2 14 16 15 7 1 16 12 6 7 9 3 19 14 6 1 12 16 12 10 15 4 1 8 2 13 18 7 2 4 11 8 2 11 18 16 13 10 15 7 8 8
3 7 5 3 12 4 15 5 16 14 1 18 17 18 14 8 14 14 2 10 10 3 16 1 1 9 15 9 7 2 1 6 3 7 1 14 4 18 1 15 11 17 8 16 8 3 14 19 3 5 16 2 6 17 18 1 11 4 3 4
8 6 17 14 14 15 16 10 17 19 5 15 14 7 18 12 14 1 13 17 15 16 7 3 6 19 1 5 9 1 3 19 16 17 7 6 1 13 3 12 7 4 3 3 1 1 8 18 19 6 6 11 11 5 9 12 19 15 9 14
15 11 2 16 16 5 18 16 1 13 12 2 17 1 11 11 13 4 2 5 12 2 6 3 15 12 8 12 9 14 7 5 4 8 17 15 3 6 6 16 2 11 18 7 14 5 13 11 13 17 19 15 13 5 3 13 5 18 2 5
16 7 8 6 7 7 17 10 3 15 8 8 17 6 3 1 4 19 9 11 19 17 18 11 15 11 12 19 5 4 11 5 4 2 19 15 4 12 1 7 7 3 9 18 10 11 18 8 2 3 10 5 10 11 5 19 8 17 10 15
15 18 6 18 5 4 4 15 6 8 17 11 19 2 4 16 9 1 1 5 12 4 17 2 14 6 14 12 17 1 7 7 3 5 11 9 17 10 14 7 8 3 2 14 6 19 6 8 8 9 11 8 16 6 4 12 1 4 5 18
9 11 18 6 1 11 9 15 11 15 19 18 6 14 16 9 2 3 16 15 1 7 5 9 10 18 10 16 1 19 8 13 5 15 18 16 5 16 13 15 11 10 17 13 9 12 3 3 9 14 10 18 7 10 18 3 6 10 16 3
1 12 14 11 7 6 13 10 15 1 5 6 9 2 5 10 9 12 19 18 16 8 8 7 10 10 6 15 17 16 10 14 1 11 14 18 15 6 6 4 18 12 7 9 9 4 9 6 6 8 13 14 11 18 6 13 4 8 2 17
19 18 13 19 11 11 6 18 7 6 14 4 7 15 1 4 1 19 17 7 2 1 10 9 4 16 4 3 5 2 14 8 5 8 5 19 18 8 18 18 17 10 18 1 14 9 7 15 18 2 12 5 10 15 16 18 8 5 16 14
8 4 13 6 11 6 19 19 11 1 6 13 2 19 9 11 2 10 15 14 9 8 4 4 9 10 17 10 11 6 12 14 11 4 11 14 17 13 9 8 10 8 4 17 16 19 4 11 7 6 17 18 10 2 5 19 19 10 16 1
9 10 8 6 8 11 2 17 8 15 13 8 1 7 4 2 5 6 7 10 6 7 3 6 8 14 5 9 18 12 14 8 17 8 19 1 19 17 10 5 17 6 3 11 12 9 17 3 18 4 14 13 3 7 15 2 7 3 18 14
7 12 19 16 1 6 11 12 8 4 2 8 16 2 12 19 5 12 13 18 16 2 11 14 17 1 5 10 13 17 14 17 19 15 18 5 7 6 11 7 18 5 15 14 3 7 16 1 15 15 17 15 10 19 17 5 2 5 19 19
1 2 19 10 10 4 8 2 3 7 13 18 1 6 1 12 7 17 12 11 4 5 14 17 1 19 8 19 17 14 4 2 7 11 7 17 6 6 5 18 18 15 17 9 3 19 14 4 19 6 17 5 13 8 16 16 7 2 10 11
16 9 4 9 3 11 11 10 19 4 6 2 12 14 12 9 7 6 15 2 5 4 1 11 16 19 9 18 15 11 10 5 16 14 2 10 11 9 6 11 8 4 5 16 19 16 12 18 16 7 10 1 6 8 6 12 8 13 13 4
3 12 15 9 13 2 6 18 12 2 18 17 19 5 13 1 19 5 11 19 7 10 3 8 1 9 18 8 8 9 3 18 16 3 9 15 9 16 3 18 11 14 7 14 9 12 2 2 15 5 13 4 2 13 16 12 10 7 8 4
4 18 10 4 19 19 2 16 15 17 12 4 2 13 9 13 4 8 19 9 8 17 12 4 16 18 16 3 7 17 6 2 9 19 14 13 4 3 15 9 10 5 6 17 12 10 2 8 5 3 8 2 8 18 15 7 6 7 7 1
4 18 10 18 11 10 15 3 18 15 10 1 13 10 18 3 11 14 11 7 16 8 18 5 9 5 14 10 4 8 8 17 16 14 6 11 15 7 7 3 15 19 10 9 13 7 8 17 1 12 15 11 15 1 4 15 1 5 10 7
16 5 18 11 8 12 5 19 5 7 8 4 8 9 11 17 18 9 12 3 16 16 10 11 12 16 2 15 10 11 11 10 17 19 6 10 2 18 1 1 2 9 13 13 5 11 4 7 9 7 16 11 13 7 10 19 15 8 18 12
11 10 9 14 16 17 7 9 3 2 16 19 9 11 1 8 4 16 6 1 13 15 6 4 14 19 17 10 9 7 14 13 1 9 10 12 19 18 17 7 5 15 4 8 11 17 3 2 7 3 16 18 2 17 19 15 5 6 19 16
1 16 19 16 8 3 19 19 2 9 8 5 19 18 15 17 11 18 12 17 17 15 4 6 11 15 12 3 9 14 7 13 18 1 7 9 15 8 1 9 17 3 19 17 15 11 19 3 2 2 4 7 13 3 19 6 12 13 6 12
10 16 10 8 2 14 6 18 12 7 3 4 18 4 19 14 15 6 11 19 16 10 1 8 11 1 1 16 2 2 16 3 2 8 18 2 13 12 16 1 5 1 10 15 19 19 8 10 3 5 11 6 2 6 15 19 15 3 17 1
14 10 17 11 10 19 2 10 6 18 2 3 10 11 15 16 19 6 8 11 12 10 13 16 10 10 1 16 13 18 6 10 15 15 6 15 4 19 5 19 18 18 5 5 4 8 16 11 11 19 19 10 15 6 8 4 16 1 1 19
19 6 16 7 12 11 8 14 5 19 12 1 1 8 13 14 6 8 13 3 14 10 5 14 18 16 15 9 8 2 18 4 18 6 1 12 2 17 12 12 1 3 6 11 7 19 9 7 13 14 18 8 7 18 6 9 1 3 8 16
16 18 7 3 2 9 3 14 8 1 12 8 16 1 3 12 4 13 8 19 7 9 15 13 4 10 16 1 1 11 12 19 9 16 16 2 15 3 10 17 16 14 19 13 3 10 12 7 15 14 6 7 15 9 10 8 3 13 19 11
13 3 14 16 9 13 19 1 4 1 16 1 4 10 3 12 10 3 11 13 18 10 5 6 6 5 4 1 6 9 19 2 4 19 5 14 1 3 4 9 11 12 3 15 18 5 4 6 6 17 18 1 3 6 13 3 17 8 11 4
9 18 14 15 2 14 17 5 5 9 12 7 18 2 2 6 7 10 8 1 2 18 14 8 11 19 19 17 6 2 17 12 12 1 19 13 17 7 14 4 8 19 1 17 6 11 2 1 5 7 15 8 19 10 3 11 4 6 5 3
15 1 18 4 12 19 15 18 2 9 8 1 15 5 13 3 17 17 2 19 17 18 13 19 6 9 12 2 17 8 9 12 3 12 9 8 1 16 5 7 16 3 18 15 18 15 12 15 17 1 13 7 4 5 5 16 7 19 17 3
8 13 2 13 1 16 17 4 15 6 2 2 12 15 4 15 19 18 1 10 16 17 5 17 15 2 8 17 8 12 1 2 18 3 19 3 2 5 14 3 17 9 19 11 18 12 15 8 2 9 17 9 19 8 7 10 9 4 18 19
9 1 16 4 5 1 3 10 16 1 13 14 4 17 12 8 17 13 19 3 7 19 16 18 14 11 3 11 15 9 14 18 7 15 13 17 13 15 7 17 10 5 12 1 15 4 5 2 15 18 13 16 5 16 12 9 4 17 9 13
18 11 14 8 7 15 8 9 5 15 15 2 6 2 12 2 8 15 3 11 7 1 16 17 15 17 13 10 3 4 14 15 7 13 19 19 11 4 13 19 15 16 17 1 4 11 10 3 5 10 2 8 14 17 7 17 14 17 12 10
3 18 7 1 1 19 15 13 2 13 11 4 2 3 15 10 4 16 13 5 8 11 6 12 3 6 1 9 6 2 5 13 11 4 17 17 10 17 19 5 16 16 1 11 19 18 7 12 3 17 14 18 4 8 2 11 13 14 17 15
19 6 8 1 9 17 12 17 6 18 1 7 17 9 8 11 10 14 12 4 19 9 7 9 8 6 10 4 2 6 5 15 19 4 5 10 9 1 3 2 6 9 6 5 16 7 2 15 19 11 2 18 3 13 16 10 19 18 12 3
8 9 15 19 13 6 8 13 4 18 2 9 11 11 18 10 3 3 12 2 5 14 4 11 5 6 13 6 7 15 11 10 8 1 14 16 13 7 11 10 18 8 12 2 9 12 8 12 15 6 8 17 6 11 18 14 6 5 14 7
13 3 6 9 8 11 1 11 16 2 17 15 11 2 3 16 3 2 2 12 18 2 10 1 7 13 5 17 3 1 11 9 12 5 17 16 3 4 14 17 11 16 15 13 9 12 6 4 9 2 12 4 3 3 8 12 12 5 2 14
7 4 9 16 11 9 3 6 5 7 14 19 8 4 1 3 6 16 12 14 7 1 9 1 8 7 6 10 17 6 4 17 2 1 11 8 8 18 3 1 9 1 19 3 8 13 16 18 2 6 6 15 13 7 7 7 15 9 8 4
3 13 9 19 3 16 17 8 13 13 15 8 14 11 6 7 1 7 12 15 11 7 8 11 19 8 5 14 13 4 12 19 10 18 17 16 11 1 19 11 15 9 5 9 11 18 2 2 2 19 6 9 16 12 12 15 6 18 19 15
12 4 14 10 1 16 17 15 13 9 16 1 7 2 1 3 3 18 1 2 6 3 12 13 18 4 3 17 7 3 10 13 1 5 19 12 14 15 8 15 1 6 9 12 4 5 2 15 12 10 13 7 17 17 9 9 11 1 12 17
---
11139 10604 11767 11129 10966 11299 11015 11075 10499 10550 11803 10215 10826 9699 11904 10448 10852 10867 11579 11512 10920 11224 10665 11611 11332 12543 9913 12439 12076 10350 11280 11781 11940 10844 12385 10974 11136 11908 10960 9762 11810 10344 11928 11138 11427 12018 10589 10011 11097 11031 12291 12099 12955 11000 11084 11923 11247 11318 12372 11383
11209 11268 12973 12946 12075 12574 12067 12756 11509 11562 12611 11715 11915 11064 12260 11552 10783 11125 12900 11562 12129 11999 11852 11684 11570 13226 11514 12502 12418 11973 12198 12671 12550 11388 12780 12775 11746 12446 11306 10516 12584 11362 12214 12091 12856 12704 11002 11485 12098 12152 13191 12990 13184 12334 12062 12975 11953 12298 12717 11911
11192 11223 12385 12304 11310 12038 11412 12277 11056 11341 11565 10339 10745 10583 11740 11105 10503 10693 11858 11985 11051 11732 11197 11118 12185 13588 10779 12182 11347 11414 11623 12182 11724 11793 12852 11919 10893 11597 10623 10022 12112 10843 11932 11326 11943 11441 10679 10311 11302 11462 11974 11711 12851 11636 10906 11558 11307 11168 11268 11526
13211 12869 13752 13550 12732 13368 12786 13443 12758 11835 13464 11183 12907 12138 13480 11964 11499 11826 14101 13149 12363 12499 12161 12445 13242 13984 12352 13347 12886 12028 13113 13740 13515 12454 13683 13218 12349 12911 12244 11386 13527 12141 13271 13179 13734 13550 11671 11822 12720 12509 14028 13301 14048 13151 12921 13777 12299 12592 13090 12635
11658 11161 12354 12661 12077 12940 12007 12423 12033 11644 12528 11271 12175 10887 12213 11488 11384 11033 12254 11886 12045 12245 11803 12161 12489 13260 12066 12799 12584 11511 12567 12235 12583 11808 12992 11979 11424 11823 11500 10010 12841 11312 12464 11802 13050 12474 11698 11383 12068 11675 13215 12496 13596 12235 11566 12103 11872 11633 12476 12376
12562 11956 13450 12775 12425 12986 13517 13469 12578 12227 13195 11843 12615 11466 13256 11951 11270 11380 13571 12667 12707 12194 11904 12457 13265 13771 12047 13506 13010 12673 13139 13616 13162 12420 13195 13263 12397 12698 12173 10796 13333 12779 13132 12285 13379 12983 11899 11180 13005 13241 13926 13316 13840 12763 12858 12744 12152 12186 13110 12950
11359 11488 12874 12223 11944 12882 12480 12334 11553 11736 11885 10790 12020 11025 11783 11578 10937 11334 12312 12467 11929 11809 11714 12261 12049 12642 10827 12676 12568 12006 12712 12370 12698 11490 12704 11954 11273 11407 11674 10383 12583 11858 11962 11639 12424 12326 10807 11421 12082 11766 13093 12418 13730 11590 11921 12459 11830 11759 12989 11844
10219 11138 12478 11769 11126 12217 11895 11889 10881 11017 11780 10151 11450 9587 11761 10496 10190 10178 12027 11962 11266 11339 11072 10707 11920 12735 10577 12255 11799 10970 11709 12092 11354 11121 12366 11209 9880 11841 10974 9353 11922 10895 11574 11613 12129 11801 10458 10364 10965 11496 12740 12030 12134 11561 11053 11565 11246 10292 11915 10570
11987 11660 13050 11898 11951 12425 12068 12089 11327 12157 11983 10735 12051 10845 12051 11129 10977 10612 12474 11876 11886 12558 11415 12196 11901 13395 11340 12361 12063 11398 12213 12266 12389 11030 12373 11759 11113 12245 11043 9651 11854 10678 12023 12373 11959 12556 10779 11557 11378 11921 11845 12693 13035 12450 11566 11735 11765 11598 11927 11309
10631 11545 12480 11506 11179 12264 11374 12200 11198 11226 11987 10446 11864 10450 12408 11231 11080 10320 12618 12154 11744 11896 11180 10729 11528 12567 10916 11723 11049 11028 11607 11810 12310 11114 12440 12032 10953 11252 10813 9699 11919 10880 11749 12460 12584 11461 10670 11140 10659 11166 12684 12608 12517 11763 11795 12070 12082 11181 12152 11619
11972 12467 12833 12274 11713 12855 12021 12623 11921 12051 12910 11236 12327 11085 12633 11346 11089 10513 12979 12217 12259 11450 11964 11795 12251 13572 11413 12382 12606 11933 12284 12468 12915 11647 12759 12253 11167 12257 11074 10297 12346 11080 11937 12979 12267 12741 10783 11107 11880 12635 12811 12696 13310 11978 11941 11572 11723 11397 12056 11790
10812 10709 12642 11518 11733 11761 12398 12754 11150 11021 11948 10845 11916 9935 11835 10503 10907 10802 12049 11644 11172 11438 11126 10760 11511 12379 10693 11909 11208 10188 12061 11762 11551 10304 12669 12515 11317 11096 10808 9880 11920 10980 11850 11728 12282 12276 10260 11261 11206 11179 12041 11508 12843 11225 12010 12481 11628 11407 11964 11380
12208 12262 13093 12709 11904 13171 12770 12892 12209 12542 12821 11127 12460 11042 12599 11871 11547 11721 12632 11992 12100 12309 11945 13028 12733 13806 11838 13117 13079 12025 12491 13376 13073 11537 13470 12784 11697 11995 12406 10047 13019 11532 12802 12573 12580 13625 11492 12062 11934 12078 12629 13052 14063 12919 12035 12476 12074 11907 13278 11935
10319 10756 11389 10994 10341 11088 10798 11193 10155 10488 10112 9967 10376 9610 10997 9712 9296 9791 11421 10312 10114 10841 10042 9923 10789 12243 10429 11159 10522 10779 10894 10832 10384 10334 11203 10681 10391 11106 10152 8926 11050 10540 11151 10113 11344 11074 9701 10032 10062 10378 11062 10842 10761 10660 10181 10454 9955 10861 11148 10249
11150 10121 12277 11499 10981 11353 10568 11391 10548 10552 10932 10466 10274 9953 11177 10837 10275 9812 11375 11051 9947 11843 11029 10939 11128 11957 9626 11911 11667 10562 10973 11121 11537 10735 11898 10856 10446 10925 10100 9200 10607 9928 11284 11552 11066 11748 9817 10326 10920 10447 11624 10578 12054 10983 10515 10968 10578 10296 10625 11197
12744 13293 13989 12847 12399 13212 13115 14154 12155 12581 13299 11851 12999 12319 13694 11951 11910 11305 14121 12439 12625 12930 11797 12321 13322 14865 13107 13454 12706 12692 13913 13636 13901 12162 14186 13237 12586 12522 12854 10500 13064 11647 13111 13485 13128 13707 11416 11406 12254 12439 13291 13591 13519 12593 13379 13154 12022 12852 13599 12497
12590 12536 13075 13176 12197 12742 12472 13296 12173 11730 13318 11387 13218 10948 12992 11624 11494 11282 12670 12939 12440 12396 12221 12460 12464 13724 12033 13044 12588 11912 12482 13125 12901 12575 13095 12483 11772 13240 11742 10697 12747 11529 12376 12517 12299 13002 11189 11440 12229 12012 13571 12322 13625 12467 12582 13475 12092 12243 13127 12328
11661 12134 13334 13129 12389 13043 12691 13071 11763 12164 13074 11723 11855 11479 13223 11082 11350 11232 12858 12239 11250 12103 12031 12016 12826 14019 11992 13209 12531 12471 12940 13445 12874 12674 13405 12502 12058 12425 12565 10498 12292 11257 13009 12095 12803 12857 11002 11499 12943 12144 13299 13012 13235 12602 12708 12462 11957 12195 13097 11640
12167 11608 13121 12370 12410 12686 12770 13103 11745 11627 13112 11436 12348 11736 12890 11858 11864 11421 13114 12211 12069 12853 11895 12446 13049 13926 12551 13017 12660 12293 12976 12994 12992 12722 13906 13109 12530 12377 11777 10937 12843 11625 12334 12710 13253 13343 11000 11413 12683 11965 13024 13209 13615 12294 12524 12587 12085 12392 13579 12496
12082 11684 12754 12123 11762 12604 12386 12207 11710 11142 12723 10441 11973 10793 11943 11379 10855 10953 12541 12134 11955 12050 11878 11815 11944 12933 12197 12945 11688 11659 11818 12886 12721 11651 12874 12230 11881 12046 11506 9747 12236 11160 11714 12793 12840 12503 10951 10956 11929 11550 12681 12861 12970 12112 11210 12668 11267 11247 11878 11984
10917 10406 11657 11884 11134 11959 10829 11370 11237 10860 12307 11042 11705 10076 11699 10841 10925 10514 11473 11415 10596 11823 11061 11394 11369 12658 10815 12311 11705 10920 11071 12078 11817 11075 12648 11131 11461 11616 10771 10014 11853 10971 11807 11082 12240 11973 10916 9922 11794 10593 12378 11530 12806 11303 11047 11631 11014 11366 11743 11828
12711 12501 13601 12424 12328 13611 12421 13614 11864 12295 13291 11312 12503 11092 12436 11793 11352 11887 13377 12168 12974 12323 12838 12177 12732 14473 12872 12663 12960 12591 13583 12462 13483 11942 12998 13505 12367 12298 12105 10625 12776 12412 12496 13521 12933 13092 11605 12098 12573 12159 13954 12871 14089 12535 12357 13616 12171 12714 12703 12631
12391 12323 13825 13513 13091 13315 12733 13273 12360 12332 12568 12324 13025 11743 13277 12045 11947 11186 13652 12934 12170 12857 12307 12790 12340 14555 12549 13352 13161 12551 12779 13426 12877 12522 13698 12765 12037 12725 12174 11451 12813 11632 13531 12911 13600 13493 11733 11641 12558 12769 13673 13708 13620 12727 12661 13135 12429 12732 13415 11897
11215 10890 12567 12056 11314 11903 12184 11685 11076 10851 11402 10028 11182 10088 11735 10188 10272 10283 12138 11222 10443 11447 10592 11314 11908 12525 10780 12136 11149 10966 11469 12046 11704 11711 12138 11216 10178 10575 11066 9744 11693 10225 11023 10948 11766 12100 9773 10369 11363 11191 11687 10901 12178 10867 10854 11542 11296 11378 11641 10431
11867 11563 13279 12415 11724 12823 12029 12268 11927 11845 12134 11238 12316 10560 12426 11576 11525 11333 12504 12145 11858 11860 11978 12294 12044 14044 11228 12733 12201 11982 12162 12005 13030 11580 12798 11473 11060 12118 11565 10178 11867 11782 12355 11973 12368 13041 10593 10483 11693 11613 12875 12832 12630 11807 11954 12417 12107 11840 12815 11539
11164 11622 12947 12519 11833 11995 11759 12003 11835 11191 12295 11415 11606 10960 12666 11727 11354 11238 13044 11894 11554 11857 11517 11505 12204 13573 11360 12428 12510 11456 11743 12317 12654 11384 13121 11945 11023 11918 11649 10403 12322 10864 12391 12594 12003 12414 10238 11229 12214 11071 12838 12548 13156 12121 12040 12250 11098 11321 12841 12014
12953 12685 13514 13391 12442 13600 13212 13863 12660 12596 13306 12478 13085 11674 13252 12369 12286 11690 13720 12740 12864 13059 12768 12904 13081 14718 12424 13643 12728 12799 13337 12913 13193 12386 14345 13423 12586 12786 12645 10798 13314 12501 13091 13374 13929 13879 12366 12128 12289 13044 14012 13391 13719 13380 12549 13276 12753 13210 13278 13014
12344 11997 13549 12582 12153 12827 13105 13061 12058 12148 12109 11323 12487 11471 12658 12133 11602 11619 13129 12206 12680 12212 12579 12014 12745 13837 11237 13310 12601 12647 12605 12523 12621 12015 12849 12867 11963 12433 11899 10816 12885 11285 12878 12786 12958 13093 11469 11997 12469 12340 13369 12691 13999 12354 12124 12685 11935 11825 12758 12749
12166 12151 12405 12721 11627 12972 12286 12361 11672 11468 12559 11148 12557 10687 12766 11423 11501 10879 12683 12147 11860 12698 11812 12733 11756 13414 12285 12782 12361 12394 12513 12776 12689 12563 13013 12527 11804 12156 11634 11185 13177 12262 12580 12388 12604 12479 11160 10888 12165 12053 13210 12454 13293 12210 11838 12400 11534 12367 12609 12048
12281 11883 13066 12950 12148 13735 12234 12943 11964 12301 13322 12064 13056 10630 12847 11795 11812 11151 12852 12397 12251 12901 12000 12364 12627 14143 11644 13691 12911 11789 13002 13078 13018 12004 14286 12885 12055 12997 12051 10243 12921 11586 12922 12403 12937 12655 11636 11540 11986 12600 13347 13199 13526 12513 12167 13480 12778 12271 12420 12159
12243 10762 12557 11413 11017 12025 11227 11817 11046 11174 11738 10382 11543 9988 11694 11177 10947 11826 11686 11103 11417 11425 11399 11558 11735 13315 10676 12403 11969 11882 11743 12588 11711 10811 11984 11497 10792 11547 10973 9683 11628 11192 11372 11839 12333 11950 10377 10219 12059 11111 11946 12283 12296 11777 11944 11969 11514 10592 11789 10927
12130 11888 12769 12450 11901 12976 12556 12702 11623 12360 12988 10420 11829 10307 12589 11292 11559 11028 11748 11658 11872 12202 11676 11999 12083 13400 11184 12065 12072 11309 12536 12015 12556 11259 12615 13117 11866 12018 11832 10142 12575 10984 12229 11918 12405 12739 11056 11559 12025 12128 13175 12305 13472 12330 12191 12443 11723 11668 12063 12359
11247 11936 12305 12310 10954 12768 11697 12155 11898 11194 12513 11000 11668 9763 12148 11684 10828 10931 12531 12473 11684 11830 12029 12065 11959 13235 11387 12727 12038 12481 11722 12758 12100 11912 13800 12639 11531 11492 12280 10498 12524 11543 12012 12368 12448 12309 10925 10822 12263 11427 13130 12437 13377 11832 11352 12214 11431 11421 12492 12136
11017 10715 11934 11581 11506 11766 11374 11547 11167 10903 11649 10643 11701 9873 11715 10512 10440 9946 12237 11001 10748 10932 10778 11362 10896 12526 10255 10856 11437 11178 10834 11974 11737 10705 11927 11936 10647 10771 10934 9681 11868 10019 11455 11201 11268 11324 10388 10982 11413 11788 11736 12212 12326 11959 11193 10882 11334 11352 11670 10506
11348 11485 12461 12096 11513 11549 11379 11965 11358 10414 12504 10210 11071 11174 12321 11135 10399 10274 13355 11814 11134 11192 11581 11609 11646 13152 11425 12192 12047 11807 12038 12152 12144 11664 11994 11550 10844 11293 10894 10178 12416 11346 12504 12170 12725 12415 11043 11218 12063 11294 12338 12238 13037 11699 11518 12010 10808 11285 12249 10828
11300 11395 12410 12273 11946 11804 11814 12352 11624 11611 12606 10613 11225 10826 11908 11037 10704 10498 11999 11642 11574 10949 11034 10959 11503 13656 10820 12434 11960 11175 11544 12222 12208 11351 12338 12025 10949 11707 10412 10130 12152 11273 11726 11933 11905 12240 10311 11307 11364 11386 12712 11483 12411 11581 11601 11465 11693 10875 11942 11530
11385 11298 12366 12497 11685 12209 11973 12027 12148 11016 12296 11159 11906 10493 11715 11055 10705 10611 12253 11751 12022 11644 11083 11332 11894 12820 11050 12971 11963 11140 12302 12142 12084 11468 12724 11777 11371 11602 11640 9587 12529 11787 11699 12043 12677 12308 10548 10499 11573 12059 12509 11850 12505 11635 11714 12417 11370 11171 12246 12119
12609 11969 13925 13506 12347 13571 13012 13521 12368 11983 13293 11678 12921 11642 12787 12498 11254 11402 13402 13003 12821 12715 11950 12414 13144 13839 11751 13692 12484 12055 13150 13252 13517 12808 14170 13016 12340 13181 12109 10833 12411 11641 12646 12770 13628 13866 11175 11153 12523 12729 13631 12831 13678 12868 12643 13174 12305 12729 13436 12783
12545 12295 13860 12706 12209 12842 12638 13022 12390 12374 13156 11746 12851 11555 13438 12539 11767 11167 13217 12908 12808 12675 12322 12791 13241 14014 12261 13533 12564 12595 13087 13408 13775 12166 13636 13149 12378 12564 11673 10337 12643 11216 12705 13642 13159 13168 11574 11149 12713 11829 13391 12738 13968 12095 12529 13120 12346 12061 12782 12832
11670 10573 12791 11310 11829 12600 12041 11969 10827 11731 11695 10345 11656 10366 12400 11226 11636 11196 12330 11736 12059 12269 11827 12229 11966 13352 11294 11954 12012 11618 12326 11828 12632 11089 12462 11847 11192 11157 11552 9494 11485 10658 11464 12450 12862 12312 10751 10920 12093 11155 12712 12612 12756 11646 11589 12371 11740 11689 12519 11317
12389 12238 13616 12829 13183 13158 12603 13061 12411 12262 13676 11681 12368 10898 12484 12079 11396 11354 13325 12992 12429 12401 12355 12069 13081 14126 12218 13086 12944 12168 13099 13229 13592 12669 13352 12450 11609 12697 11512 11024 13314 12101 13092 12713 12640 12910 12109 12113 12640 13264 13389 12857 13971 12833 12685 12834 12933 12286 12359 12440
12411 11975 13529 12999 11970 13408 13041 13032 12267 11695 13342 11767 13298 11020 12865 11755 11478 10953 13009 12662 11972 12899 12066 13154 13188 14031 11984 13327 13074 12485 12882 13182 13011 12250 13735 12770 12334 12844 12217 10575 13086 11911 12956 12546 12738 13133 11676 10981 13008 12726 13328 12637 13835 13111 12709 12611 11998 12899 12949 12530
10258 11144 12295 12533 12181 12160 11425 12332 11516 12120 12006 10527 11637 10468 12493 11425 11042 10340 12102 11120 11734 11949 11126 11620 12165 13278 10925 12606 12378 11242 12201 12112 12723 11482 11969 11951 10461 11783 11130 9644 12054 10812 11256 11745 12063 12362 10829 10846 11556 11119 12408 11653 12888 11318 11691 11478 11432 10555 11593 11580
12142 12219 12795 11929 11987 12666 12403 12252 11629 12089 13020 11009 12280 10536 12536 11109 11352 11181 13206 12245 11814 12526 11990 12410 12263 14048 11679 13351 12153 11738 13028 12506 12733 11843 12880 12580 11598 12154 11693 10467 12858 11657 12536 12518 12484 12932 11366 11665 12051 12155 12900 12548 13418 12150 12240 12466 11724 11831 13176 11811
11380 10916 12084 11643 10962 11832 11620 12006 11193 10859 11793 10603 11501 9986 11561 10961 10632 10483 12174 11276 11446 10854 11511 10798 11923 12469 10674 12190 12018 11098 11712 11932 12006 11461 12489 11869 10637 11049 10686 9932 11935 10771 11342 11723 10979 12100 10484 10609 11585 11394 12449 11738 13032 11475 11302 11627 10930 10541 11810 11614
11697 11824 13088 11769 12574 12250 12225 12765 11127 11534 12778 10791 12381 10807 13062 11370 11422 10308 13058 12105 11363 11665 11542 11629 12327 13366 11780 12649 11641 11653 11819 12009 12195 12017 12614 11902 10916 11971 11292 10373 12498 11383 12897 11879 12190 12156 10946 11386 12694 11979 13221 11778 13128 12055 12653 12049 11327 11756 11736 11791
11657 11734 13070 12566 12228 12757 11870 12014 11549 11961 12598 11157 11694 10648 11925 11789 10793 11384 12916 12269 11267 12018 12014 12182 12526 13798 11961 13499 13098 11749 12718 12902 12301 12114 13305 12158 11615 11796 11779 10761 12264 10862 12380 12642 12883 13058 11140 11038 12030 12058 12737 13143 13533 12572 10987 12339 11721 11465 12310 12006
12281 11716 13299 12107 12015 13165 12312 12711 11801 12050 13146 12014 12478 11134 12869 11465 11072 11486 13288 12455 11763 12302 12472 12511 12497 13947 12081 13205 12644 12491 12194 13213 12464 12077 13764 12156 11982 12817 12050 9830 12882 11614 12988 12789 12546 13093 11167 10991 12471 11859 13244 13125 13244 12735 12386 12495 11673 12083 12917 11660
12377 10749 12489 12116 11398 12160 12663 12046 11585 10752 12227 11014 11543 10491 11792 11136 10802 11300 12437 11750 11878 12109 11597 12161 12237 12943 11035 13051 12174 11579 12114 12012 12452 11275 12915 11690 11794 11684 11646 9968 12640 11231 11738 11901 12874 12816 10590 11194 11980 11894 12787 12166 12875 12003 11853 12496 11346 11719 12262 12168
11794 11336 13336 12137 12216 12361 12394 12649 12062 11794 12706 11753 12265 10555 12187 11107 11514 10905 12634 12154 11662 11832 12169 11813 11957 12987 11234 12531 12273 12207 12744 13009 12165 11433 12918 12311 11767 12026 11547 10303 12134 11056 11968 12089 12837 12477 10337 10837 12742 11933 13085 12677 12874 12343 11637 12307 11566 11975 12455 11876
10652 10760 12128 11380 11051 11275 11255 12573 10520 10719 12189 10209 10734 10049 11375 10039 9930 10143 11476 11292 11516 11372 10776 10570 11546 11794 10517 11605 11589 10856 11931 11822 11412 10827 12639 11863 10811 11220 10304 9638 11583 10459 11013 11880 11506 11593 9987 10404 11072 10788 11942 11574 12546 11012 10913 11562 11495 10945 11059 10962
11009 11080 12109 11687 11400 11696 11737 12373 11061 10879 11893 10394 11446 9991 11814 10215 10442 10244 11705 11227 11252 11135 11315 11141 12036 12877 10944 12221 11916 11132 11869 11872 11351 11479 12473 11420 10688 11788 10774 9345 11134 10495 11779 11580 11692 11820 10511 10757 11589 11127 12180 11994 12721 11775 10890 11922 11154 11495 11837 11259
10595 10195 11603 10620 9921 11394 10520 10664 10103 10203 10797 9427 10584 8886 10428 9926 9799 9249 11161 10393 10349 10256 10612 10608 10622 11935 9815 10899 11159 10859 11465 11122 11424 10548 11558 10710 9991 9998 10783 9047 10924 9518 10533 10622 10641 11464 9741 9619 10369 10504 11515 11202 10859 11259 9989 10649 10231 10920 11190 10420
11398 11588 11934 12372 10853 12312 11374 11563 11283 11141 11752 10739 12296 10082 11595 10688 10446 10509 11248 11375 11127 11193 11722 11249 11732 12491 11290 12082 11700 10613 11358 12399 11582 10486 12558 11804 11729 11122 11245 9912 11468 10958 12307 11632 12110 12202 10693 10443 11117 10963 11931 12411 12926 11258 10458 11884 10783 11979 11306 11185
11601 11939 12511 12690 11516 12273 12178 12483 11263 10820 11920 10159 11739 10565 11994 11357 11175 10717 12967 11910 12026 12648 11539 12439 12146 13311 11224 12615 12110 11656 12108 11732 11980 11505 13052 12482 10724 11912 11566 10068 12355 11327 12495 12624 12972 12697 10826 11471 11628 11349 12447 12289 13484 12418 11693 12203 11042 11386 12533 11550
12268 12154 13491 13432 12503 12936 12898 13072 12340 11965 13512 11760 12404 11520 13142 11988 11750 12079 13275 12419 12185 13042 12002 12906 13091 14125 12063 13124 12880 12095 12834 12837 13412 12433 13975 12433 11955 12841 12105 10880 13229 11468 12898 12588 12865 13834 11290 12010 12884 12103 13964 13333 13870 13072 12445 13526 12106 12472 14230 12726
12488 12129 12912 12124 12479 12934 12994 12959 12027 12616 12846 11021 11936 11474 12657 11255 12047 11380 13689 11763 12552 11755 11588 12454 12672 13677 11414 13155 12745 12157 13267 13044 13381 11806 12849 12967 11755 12980 11724 9857 12571 11132 12279 12334 12418 13087 11254 12226 12235 13078 13122 13290 14103 12453 12535 12191 12587 11726 13037 11929
11547 12369 13088 12802 12375 12550 12784 12952 11769 12013 12644 11102 11867 11391 12749 11884 11450 11212 13516 12579 12340 12377 12256 12223 12710 13998 11716 13002 13154 12679 12817 12797 13072 12264 12703 12751 11678 12056 11782 10152 13649 11821 12929 11986 12826 12219 11744 11122 12119 12621 13408 13261 14444 11900 12204 12611 12154 11889 12718 12407
12209 12565 13488 12049 12031 13786 11966 12952 12248 12602 13552 11426 12178 11024 12489 11594 11678 11355 12623 11802 11974 12052 12421 12420 12512 13694 12302 13238 13067 12667 12889 13016 13065 12178 13480 12693 12229 12638 12523 10174 12505 11724 12101 12961 12776 13389 10921 11589 12316 12316 13637 13388 13471 12970 11900 13485 12268 12035 13224 12736
11638 11735 12690 12205 12158 12857 11702 12553 12088 12109 12208 11017 12360 10503 13022 11596 11252 10618 12796 12382 12655 11502 11838 11035 12177 13003 11113 12533 12920 12027 12269 12884 12972 11791 13004 12424 11703 11736 11587 9582 12032 11017 11521 12227 12588 12580 10530 11655 11676 11851 13111 12622 12951 11390 11656 12437 11796 11751 12092 11984
11439 11030 12429 11663 12112 11838 11583 11997 11081 11619 11505 10503 11211 9964 12006 10828 10704 10453 12351 11379 11004 11489 11053 11591 11486 13188 11063 12341 11996 11189 11775 10989 11973 11565 12548 11549 11583 11241 11036 9907 12077 10493 11618 12232 12093 12465 11359 11323 11653 11173 12633 10886 12357 11589 11475 11648 11168 11101 11795 11645
11700 11883 12778 12674 11492 12221 12359 12334 11948 11405 12578 10757 12662 10938 12157 10988 11262 10449 12527 11980 12061 11415 11971 11694 11696 13213 11363 12340 12409 11464 11162 12190 12395 11293 12524 11850 11885 11913 10787 10332 12196 11942 11922 12380 11824 12122 10872 11155 11839 11559 13116 11712 13239 12028 11521 12605 11384 11367 11616 12254
11357 11480 12916 12286 11775 12408 12145 12606 11541 11060 12126 10444 11134 10828 12384 10590 10723 10462 13511 11713 11752 11578 10901 11458 11947 13428 11293 11903 12333 11414 12274 11775 12436 11659 12030 12580 11393 11721 11452 10730 12451 11577 11812 12414 12604 12736 10975 11092 11585 12021 12736 12204 12901 12520 12459 12111 11693 11543 12429 11141
11223 11815 13169 12187 12001 13157 12274 12712 11991 12004 12657 11051 11243 10577 12987 11176 10897 11105 12667 12082 11980 11852 11799 11742 12324 13051 11505 12628 12209 11572 12752 13328 11917 11884 13193 12542 11065 11561 12263 10152 12436 11362 12616 12565 12581 12582 10904 11628 12300 11430 12785 12554 13141 12169 11525 12678 11561 11640 12428 11687
12476 12643 14233 13781 13630 13352 13571 14344 12668 12591 14075 12139 13076 12003 13965 12668 12894 12078 14046 13146 13582 12930 13138 12413 13447 14605 12799 13597 14111 12922 14074 13767 14158 12952 14268 13817 13173 12723 12817 11117 14410 12427 12894 14343 14371 13816 12165 12127 13516 13110 14416 13698 14885 13345 13303 13587 13561 13257 13459 13263
11550 11385 11959 12582 11466 11968 11812 11800 10836 10668 12062 10736 11632 9654 11729 11194 10557 10809 12152 11595 11481 11721 11254 11804 12066 12848 11107 12165 11872 11640 11372 11888 11797 11127 12283 11686 10716 11405 11305 9588 11969 11099 11530 11851 11844 11982 10274 10800 11421 11336 11855 12344 13145 11631 10819 12196 11269 11598 12634 11209
11202 11110 12766 11839 10991 12372 11304 12084 11437 10818 12377 10932 11753 11057 11991 11137 10261 9871 12818 11854 11790 11915 11721 11257 11434 12558 10937 11722 11912 11193 11730 12439 12480 11308 12274 11732 10520 12119 10759 9940 11949 10746 12370 11639 11818 12004 10908 10700 11358 11502 12208 12448 12642 11116 11536 12459 11459 11326 12096 10890
11392 12133 13488 12983 12013 12702 12544 13138 12079 12125 13060 11092 12582 11600 12907 11393 11477 11017 13421 12753 12386 12274 12330 11988 12490 13162 11666 12715 12935 11691 12450 13001 13201 12500 12928 12612 11664 12212 11241 10250 13400 12031 12567 12356 13080 12300 11457 12244 12086 11973 13536 11836 12851 12259 12298 12817 12036 12295 12466 12152
11092 10810 12189 11357 12096 12187 11580 12248 10988 10920 12479 11129 11233 10367 11951 10559 10401 10735 11954 11681 11116 11262 11036 10959 11204 13221 11145 12498 12375 11767 11562 11837 11600 11420 11722 11701 11392 12226 11271 10482 11924 11571 11654 11898 12173 11876 10536 10602 11657 11444 12640 12145 12412 11259 11634 12256 11633 11334 12017 11015
12304 12688 13161 13012 12680 12483 12928 12736 12280 11715 13473 11201 12446 11139 13364 11901 11768 11705 12999 13484 12319 12679 12451 12768 12506 14430 11898 13486 13065 12415 12108 13384 12655 13022 13127 12753 11330 13095 11777 11032 13648 12637 12849 12389 12700 12990 11269 11807 12000 12272 13245 12626 14208 12121 11924 12784 12382 12864 12975 11817
12048 11067 13089 11697 12067 12280 12514 12551 10911 11427 12189 11175 11612 10318 11945 10668 10963 11328 12445 12279 11265 12122 11649 11971 11770 12874 11255 12110 11528 11321 12093 12074 11309 11093 11969 12420 11285 12239 10969 10193 11987 11291 12226 11462 12236 12289 10444 11181 11536 11679 12585 11900 12962 12655 11754 11837 11479 11819 12507 12030
11291 11014 12129 12055 11148 12382 11801 11713 11573 10792 11955 11370 11813 10495 11586 10738 10259 10715 12049 12095 10957 10823 11796 11322 10984 12479 10577 12306 12057 10918 11489 11420 11122 11195 12283 11152 10791 11327 10893 10361 11839 11295 12252 11665 12215 12466 10387 10974 11742 10922 12589 11302 12449 11182 11181 11765 10900 10745 11902 11436
12015 12332 13345 13007 12803 13379 13057 13301 12316 12523 13558 11286 12605 12223 13066 12444 11945 11683 14067 12991 12503 12727 12611 12926 13197 14239 12036 13463 13697 12275 13008 12722 12907 12278 13531 13242 12758 12971 11982 10850 13136 12019 13170 13863 13641 13354 11863 12070 12394 12743 13629 13402 15038 12829 12727 13288 12995 13001 13510 13003
10547 11577 11936 11992 11178 11659 11256 12200 11418 10656 11657 10327 11276 9830 11023 10403 10241 10504 11765 11207 10854 11238 10973 10881 11322 12606 10273 11463 11238 11297 11178 11789 11797 10983 11881 10857 10118 11634 10351 9748 11563 10565 10993 11365 11453 11806 9972 10472 11068 11740 11829 11631 12738 11252 10843 11613 10933 11275 11632 10933
11209 10773 11782 11752 11399 11881 10919 11631 10947 10626 12415 10232 11008 9497 11013 10106 10527 9830 11508 10881 10962 11042 10679 10297 11433 12713 10729 11718 11610 10326 11665 11714 11629 10695 11615 11612 10505 11062 11142 9703 11174 10611 11119 11064 11911 11612 9857 9677 11341 10721 12344 11426 12255 11422 10904 12077 11370 11051 11267 10722
13077 12267 14268 13714 13155 13673 13476 12839 13242 11910 13714 12415 13384 12036 12980 12651 12114 12850 13922 13305 13258 12788 13089 13641 13422 14354 12982 13983 14186 12818 13675 13758 13878 13511 13895 13153 12834 12941 12300 11015 13860 12608 13036 13531 13470 13678 12231 11929 13492 12713 14665 13462 14549 13221 12557 13621 12439 12989 14279 13697
11752 11399 13044 12536 12039 12385 12036 12454 11428 10984 12127 10438 12475 10784 12497 11529 10890 10679 12582 12147 11666 11901 12243 11721 11991 13227 10939 12682 11838 11787 12394 12363 12689 12156 13317 11838 11228 11747 11186 9616 12419 10872 12427 11591 12508 12025 11040 11429 12425 11389 13268 11997 13175 12278 12016 12533 11313 11709 12624 11997
12400 12037 13331 13547 12459 12615 12764 12480 12685 12386 13392 11947 12346 11119 12605 11771 10976 11066 13390 12785 12401 12722 12405 12447 12716 14102 11908 13377 12985 12377 12131 13055 12496 11764 12371 12479 11574 12302 11617 10708 12767 12358 12622 12472 12986 13056 11396 10974 12189 12583 13400 13134 13721 12644 12834 12215 11925 11432 12406 12250
12041 12537 13847 13421 12666 13091 13244 13488 12312 12237 14002 12618 12467 11941 13216 12848 11959 11862 14100 13028 12726 13379 11889 12819 13269 15240 12307 13627 13662 12853 13922 13193 14081 12660 14026 12541 12210 12792 13076 11426 13993 12383 13737 13666 14158 14023 12223 11674 12887 13309 13803 13755 14100 13318 13181 13507 12616 12564 14357 12810
11230 11547 12311 12352 11405 11933 11343 11921 11296 10650 11535 10259 11177 10223 11677 10757 10263 10510 12278 11611 10893 11867 11333 11137 11259 12783 10144 12026 11829 10264 12007 11688 11779 10676 12623 11266 10276 11801 10727 10043 11513 10198 11822 11851 11743 12101 10144 10443 11081 11577 12305 11453 12778 11542 11103 12120 10771 11125 11908 11352
11108 11552 12832 12710 11740 12922 12122 13333 11439 11886 12521 11522 12235 10805 12645 11018 10342 11303 13153 12118 11350 11223 11820 12037 12247 13190 11768 12671 12321 11951 12459 12506 12385 11580 12684 12815 11825 11756 11965 10738 12270 11618 11699 11851 12329 13070 10781 11103 12392 12061 13026 12975 13312 12863 12661 12517 11838 11662 12599 11829
11073 11245 12522 12141 11695 11975 11675 12663 11108 11034 12662 11132 11864 9502 11340 10636 10522 10753 12111 11745 11849 11764 11269 11726 12154 12848 11107 12918 11443 11628 12221 11960 11624 11779 13362 11766 11509 11922 11145 9621 12276 10747 11777 11707 11772 12508 10549 10868 11733 11255 12709 11222 12911 11427 11627 11781 11282 11668 12244 11602
10026 10851 12016 12124 10866 11651 11067 11718 11065 11124 11673 9798 10930 10557 12044 11362 10281 10099 11362 11402 11201 11296 10830 10976 11207 12209 10477 12134 11673 10611 11675 11922 11530 11687 12289 11494 10427 11086 10542 9613 11693 10237 11408 11534 11930 10961 9675 10302 11095 11127 12207 11565 12109 10706 10800 11488 11052 11036 11397 11597
12433 11986 13848 13303 12258 12686 13167 12850 12261 11806 12948 10968 12499 10930 12836 11585 11239 11417 13566 12958 12635 11836 12561 12049 13232 14535 11432 12811 13208 12345 12843 12802 12952 12006 13541 12718 12161 12221 12334 10976 12976 12122 13058 12318 12587 13450 11327 11426 12326 12683 13769 13131 13905 13224 12978 12886 11856 12444 13503 12583
11288 11018 12274 11577 11216 11781 11931 11860 10468 10144 11891 10554 10706 9984 11347 10104 10665 10635 12058 11294 10646 11229 10721 11157 11401 12456 10783 11581 11512 10271 11342 11977 11759 11182 11752 11723 10655 11467 11074 10111 11977 11243 12276 11347 11394 12060 10142 10507 11202 11449 11905 11612 12522 11528 11431 11617 11001 10468 12083 11122
12624 11678 13449 12942 12477 13497 12515 12958 12448 12119 12999 11386 12605 11519 12823 11919 11789 11174 13591 12337 12550 11496 12559 12983 12272 13482 11721 13219 13057 12697 12944 12692 12994 11943 12757 12587 12005 12246 11786 10637 12807 11984 12631 12793 13411 13242 11490 12329 12869 12255 13535 13048 13701 12147 12901 12787 11798 12084 12623 11984
12170 12227 13935 12775 12052 13257 12362 13395 12463 12319 12848 11649 12176 11136 12372 11934 11567 11475 13107 12529 11728 13221 11791 12630 12402 14328 12099 12999 12655 12056 13645 12706 13482 12227 13785 12249 11769 12978 12115 10999 12896 11248 12700 12960 12706 13905 11195 11350 12305 12737 13698 12860 13482 13165 12400 13012 12288 11696 13628 12488
12153 11637 13744 12271 11554 12252 11981 12700 11599 11404 12634 10979 12430 10863 12315 11279 11292 10686 12588 12024 11335 11646 11382 11512 11889 13384 11761 12520 12186 11789 11872 13128 12899 11976 12755 11905 11870 12090 11109 10728 12540 11301 12201 12236 12097 12373 11354 11107 12156 11593 13394 12444 12750 12497 11776 12630 12431 11708 12457 12229
11294 11512 13434 12295 11706 12410 12820 13001 11165 11428 12506 10856 11840 10771 12568 11447 10611 10867 12731 13147 11859 12085 11517 12055 12295 13617 11493 12146 12319 12117 12200 12744 12607 12305 12926 12566 10760 12075 11301 10659 12349 11458 11915 11766 12002 12975 10614 10613 12022 11482 12822 12435 13543 12312 11323 12751 11541 11832 12742 12425
11707 11952 13463 12549 11746 12427 11880 12561 11125 11203 12167 10844 11666 11070 11981 11468 10746 11403 12928 11921 12294 12145 12233 11809 12688 13583 11033 12846 12831 12142 12365 12942 11950 11794 12678 11984 10927 12372 11381 10106 12452 11796 11412 12565 12442 12706 10616 10797 12517 11605 12805 12281 12826 12846 12158 12030 11507 11578 12614 11835